Tests/AMS/OSC/v1/osc.vcd
$date
    Thu Oct 13 18:40:15 2011
$end

$version
                 SystemC AMS 1.0 --- 1.0Beta2 --- unknown release date
$end

$timescale
      1 fs
$end

$scope module SystemC_AMS $end

$var real 1 !  osc_out1 $end
$var real 1 "  del_out $end
$var real 1 #  v0 $end
$var real 1 $  v1 $end
$var real 1 %  v2 $end
$var real 1 &  osc_in1 $end

$upscope $end

$enddefinitions $end


#0
r1.799980118552701 !
r0.7000000000000000 "
r0.7000000000000000 #
r0.000000000000000 $
b0 %
r0.000000000000000 &

#1000
r1.799980118552701 !
r0.000000000000000 "
r0.000000000000000 #
r0.000000000000000 $
r0.000000000000000 &

#2000
r1.799980118552701 !
r0.000000000000000 "
r0.000000000000000 #
r0.000000000000000 $
r0.000000000000000 &

#3000
r1.799980118552701 !
r0.000000000000000 "
r0.000000000000000 #
r0.000000000000000 $
r0.000000000000000 &

#4000
r1.799980118552701 !
r0.000000000000000 "
r0.000000000000000 #
r0.000000000000000 $
r0.000000000000000 &

#5000
r1.799980118552701 !
r0.000000000000000 "
r0.000000000000000 #
r0.000000000000000 $
r0.000000000000000 &

#6000
r1.799980118552701 !
r0.000000000000000 "
r0.000000000000000 #
r0.000000000000000 $
r0.000000000000000 &

#7000
r1.799980118552701 !
r0.000000000000000 "
r0.000000000000000 #
r0.000000000000000 $
r0.000000000000000 &

#8000
r1.799980118552701 !
r0.000000000000000 "
r0.000000000000000 #
r0.000000000000000 $
r0.000000000000000 &

#9000
r1.799980118552701 !
r0.000000000000000 "
r0.000000000000000 #
r0.000000000000000 $
r0.000000000000000 &

#10000
r1.799980118552701 !
r0.000000000000000 "
r0.000000000000000 #
r0.000000000000000 $
r0.000000000000000 &

#11000
r1.799980118552701 !
r0.000000000000000 "
r0.000000000000000 #
r0.000000000000000 $
r0.000000000000000 &

#12000
r1.799980118552701 !
r0.000000000000000 "
r0.000000000000000 #
r0.000000000000000 $
r0.000000000000000 &

#13000
r1.799980118552701 !
r0.000000000000000 "
r0.000000000000000 #
r0.000000000000000 $
r0.000000000000000 &

#14000
r1.799980118552701 !
r0.000000000000000 "
r0.000000000000000 #
r0.000000000000000 $
r0.000000000000000 &

#15000
r1.799980118552701 !
r0.000000000000000 "
r0.000000000000000 #
r0.000000000000000 $
r0.000000000000000 &

#16000
r1.799980118552701 !
r0.000000000000000 "
r0.000000000000000 #
r0.000000000000000 $
r0.000000000000000 &

#17000
r1.799980118552701 !
r0.000000000000000 "
r0.000000000000000 #
r0.000000000000000 $
r0.000000000000000 &

#18000
r1.799980118552701 !
r0.000000000000000 "
r0.000000000000000 #
r0.000000000000000 $
r0.000000000000000 &

#19000
r1.799980118552701 !
r0.000000000000000 "
r0.000000000000000 #
r0.000000000000000 $
r0.000000000000000 &

#20000
r1.799980118552701 !
r0.000000000000000 "
r0.000000000000000 #
r0.000000000000000 $
r0.000000000000000 &

#21000
r1.799980118552701 !
r0.000000000000000 "
r0.000000000000000 #
r0.000000000000000 $
r0.000000000000000 &

#22000
r1.799980118552701 !
r0.000000000000000 "
r0.000000000000000 #
r0.000000000000000 $
r0.000000000000000 &

#23000
r1.799980118552701 !
r0.000000000000000 "
r0.000000000000000 #
r0.000000000000000 $
r0.000000000000000 &

#24000
r1.799980118552701 !
r0.000000000000000 "
r0.000000000000000 #
r0.000000000000000 $
r0.000000000000000 &

#25000
r1.799905597958008 !
r1.799980118552701 "
r1.799980118552701 #
r0.08571333897870007 $
r0.08571333897870007 &

#26000
r1.798703150218612 !
r1.799980118552701 "
r1.799980118552701 #
r0.2489768417952716 $
r0.2489768417952716 &

#27000
r1.790569238733097 !
r1.799980118552701 "
r1.799980118552701 #
r0.3966914395816936 $
r0.3966914395816936 &

#28000
r1.758325970802956 !
r1.799980118552701 "
r1.799980118552701 #
r0.5303379804360755 $
r0.5303379804360755 &

#29000
r1.674916605989582 !
r1.799980118552701 "
r1.799980118552701 #
r0.6512562793043257 $
r0.6512562793043257 &

#30000
r1.521093383076483 !
r1.799980118552701 "
r1.799980118552701 #
r0.7606585497089330 $
r0.7606585497089330 &

#31000
r1.303635883718765 !
r1.799980118552701 "
r1.799980118552701 #
r0.8596415562654823 $
r0.8596415562654823 &

#32000
r1.053585698925900 !
r1.799980118552701 "
r1.799980118552701 #
r0.9491976098166460 $
r0.9491976098166460 &

#33000
r0.8081690108599560 !
r1.799980118552701 "
r1.799980118552701 #
r1.030224515410556 $
r1.030224515410556 &

#34000
r0.5944258444132438 !
r1.799980118552701 "
r1.799980118552701 #
r1.103534572852666 $
r1.103534572852666 &

#35000
r0.4240032624759943 !
r1.799980118552701 "
r1.799980118552701 #
r1.169862720062193 $
r1.169862720062193 &

#36000
r0.2964826573090620 !
r1.799980118552701 "
r1.799980118552701 #
r1.229873900870814 $
r1.229873900870814 &

#37000
r0.2051641458354334 !
r1.799980118552701 "
r1.799980118552701 #
r1.284169731126232 $
r1.284169731126232 &

#38000
r0.1416127818854387 !
r1.799980118552701 "
r1.799980118552701 #
r1.333294529928753 $
r1.333294529928753 &

#39000
r0.09811703850994609 !
r1.799980118552701 "
r1.799980118552701 #
r1.377740776464367 $
r1.377740776464367 &

#40000
r0.06857171464214878 !
r1.799980118552701 "
r1.799980118552701 #
r1.417954047139447 $
r1.417954047139447 &

#41000
r0.04851545213326228 !
r1.799980118552701 "
r1.799980118552701 #
r1.454337482512138 $
r1.454337482512138 &

#42000
r0.03483942366413850 !
r1.799980118552701 "
r1.799980118552701 #
r1.487255828801716 $
r1.487255828801716 &

#43000
r0.02543704183034066 !
r1.799980118552701 "
r1.799980118552701 #
r1.517039094492286 $
r1.517039094492286 &

#44000
r0.01890239985574124 !
r1.799980118552701 "
r1.799980118552701 #
r1.543985858688517 $
r1.543985858688517 &

#45000
r0.01430329423908735 !
r1.799980118552701 "
r1.799980118552701 #
r1.568366264389868 $
r1.568366264389868 &

#46000
r0.01102187280464698 !
r1.799980118552701 "
r1.799980118552701 #
r1.590424726691090 $
r1.590424726691090 &

#47000
r0.008647043714509625 !
r1.799980118552701 "
r1.799980118552701 #
r1.610382383058863 $
r1.610382383058863 &

#48000
r0.006903397206202502 !
r1.799980118552701 "
r1.799980118552701 #
r1.628439310248753 $
r1.628439310248753 &

#49000
r0.005604763656836313 !
r1.799980118552701 "
r1.799980118552701 #
r1.644776530087224 $
r1.644776530087224 &

#50000
r0.004624203596370832 !
r1.799905597958008 "
r1.799905597958008 #
r1.659554275627046 $
r1.659554275627046 &

#51000
r0.003876738453673784 !
r1.798703150218612 "
r1.798703150218612 #
r1.672863808813834 $
r1.672863808813834 &

#52000
r0.003316670659281211 !
r1.790569238733097 "
r1.790569238733097 #
r1.684461178876884 $
r1.684461178876884 &

#53000
r0.002951214785387466 !
r1.758325970802956 "
r1.758325970802956 #
r1.693031314676040 $
r1.693031314676040 &

#54000
r0.002861681648859678 !
r1.674916605989582 "
r1.674916605989582 #
r1.695277978839872 $
r1.695277978839872 &

#55000
r0.003247550402237332 !
r1.521093383076483 "
r1.521093383076483 #
r1.686013885096363 $
r1.686013885096363 &

#56000
r0.004600097719663123 !
r1.303635883718765 "
r1.303635883718765 #
r1.659952051601245 $
r1.659952051601245 &

#57000
r0.008257873515989649 !
r1.053585698925900 "
r1.053585698925900 #
r1.614110026812777 $
r1.614110026812777 &

#58000
r0.01785502558516742 !
r0.8081690108599560 "
r0.8081690108599560 #
r1.549040248534697 $
r1.549040248534697 &

#59000
r0.04224605046643617 !
r0.5944258444132438 "
r0.5944258444132438 #
r1.468302837020593 $
r1.468302837020593 &

#60000
r0.09877646841831027 !
r0.4240032624759943 "
r0.4240032624759943 #
r1.376961095727643 $
r1.376961095727643 &

#61000
r0.2111748455801879 !
r0.2964826573090620 "
r0.2964826573090620 #
r1.280130797076680 $
r1.280130797076680 &

#62000
r0.3957878529054428 !
r0.2051641458354334 "
r0.2051641458354334 #
r1.182101521314354 $
r1.182101521314354 &

#63000
r0.6435937497616275 !
r0.1416127818854387 "
r0.1416127818854387 #
r1.086033611080647 $
r1.086033611080647 &

#64000
r0.9182243347792315 !
r0.09811703850994609 "
r0.09811703850994609 #
r0.9940175443298896 $
r0.9940175443298896 &

#65000
r1.175344399198547 !
r0.06857171464214878 "
r0.06857171464214878 #
r0.9072867664485712 $
r0.9072867664485712 &

#66000
r1.384602819526147 !
r0.04851545213326228 "
r0.04851545213326228 #
r0.8264540823475364 $
r0.8264540823475364 &

#67000
r1.537054199159415 !
r0.03483942366413850 "
r0.03483942366413850 #
r0.7517134495428854 $
r0.7517134495428854 &

#68000
r1.639223057899388 !
r0.02543704183034066 "
r0.02543704183034066 #
r0.6829920003242527 $
r0.6829920003242527 &

#69000
r1.703727117469903 !
r0.01890239985574124 "
r0.01890239985574124 #
r0.6200565451355660 $
r0.6200565451355660 &

#70000
r1.742865581554223 !
r0.01430329423908735 "
r0.01430329423908735 #
r0.5625847643652658 $
r0.5625847643652658 &

#71000
r1.766061393737026 !
r0.01102187280464698 "
r0.01102187280464698 #
r0.5102112233325612 $
r0.5102112233325612 &

#72000
r1.779662715135634 !
r0.008647043714509625 "
r0.008647043714509625 #
r0.4625562933256105 $
r0.4625562933256105 &

#73000
r1.787632274310614 !
r0.006903397206202502 "
r0.006903397206202502 #
r0.4192438101955864 $
r0.4192438101955864 &

#74000
r1.792333717302822 !
r0.005604763656836313 "
r0.005604763656836313 #
r0.3799114549799610 $
r0.3799114549799610 &

#75000
r1.795141546498496 !
r0.004624203596370832 "
r0.004624203596370832 #
r0.3442165053272604 $
r0.3442165053272604 &

#76000
r1.796845881737561 !
r0.003876738453673784 "
r0.003876738453673784 #
r0.3118387877746663 $
r0.3118387877746663 &

#77000
r1.797900086314481 !
r0.003316670659281211 "
r0.003316670659281211 #
r0.2824823988967436 $
r0.2824823988967436 &

#78000
r1.798565600355577 !
r0.002951214785387466 "
r0.002951214785387466 #
r0.2558777840229904 $
r0.2558777840229904 &

#79000
r1.798994667398172 !
r0.002861681648859678 "
r0.002861681648859678 #
r0.2317852758510032 $
r0.2317852758510032 &

#80000
r1.799277095258401 !
r0.003247550402237332 "
r0.003247550402237332 #
r0.2100014034866743 $
r0.2100014034866743 &

#81000
r1.799466599418111 !
r0.004600097719663123 "
r0.004600097719663123 #
r0.1903749673508911 $
r0.1903749673508911 &

#82000
r1.799595600676926 !
r0.008257873515989649 "
r0.008257873515989649 #
r0.1728563024239325 $
r0.1728563024239325 &

#83000
r1.799683397355062 !
r0.01785502558516742 "
r0.01785502558516742 #
r0.1576372688169464 $
r0.1576372688169464 &

#84000
r1.799740332123712 !
r0.04224605046643617 "
r0.04224605046643617 #
r0.1454861515987422 $
r0.1454861515987422 &

#85000
r1.799769157646660 !
r0.09877646841831027 "
r0.09877646841831027 #
r0.1383456856790880 $
r0.1383456856790880 &

#86000
r1.799763035657924 !
r0.2111748455801879 "
r0.2111748455801879 #
r0.1399294924714843 $
r0.1399294924714843 &

#87000
r1.799694162020523 !
r0.3957878529054428 "
r0.3957878529054428 #
r0.1555058597830397 $
r0.1555058597830397 &

#88000
r1.799468140794424 !
r0.6435937497616275 "
r0.6435937497616275 #
r0.1901901399307060 $
r0.1901901399307060 &

#89000
r1.798750414000224 !
r0.9182243347792315 "
r0.9182243347792315 #
r0.2464490830106797 $
r0.2464490830106797 &

#90000
r1.796348307727033 !
r1.175344399198547 "
r1.175344399198547 #
r0.3226714910086045 $
r0.3226714910086045 &

#91000
r1.788400923150621 !
r1.384602819526147 "
r1.384602819526147 #
r0.4138431213280085 $
r0.4138431213280085 &

#92000
r1.764867586293648 !
r1.537054199159415 "
r1.537054199159415 #
r0.5135560154246536 $
r0.5135560154246536 &

#93000
r1.707134463786794 !
r1.639223057899388 "
r1.639223057899388 #
r0.6158972166727249 $
r0.6158972166727249 &

#94000
r1.593953430508754 !
r1.703727117469903 "
r1.703727117469903 #
r0.7164284424833840 $
r0.7164284424833840 &

#95000
r1.416705152887205 !
r1.742865581554223 "
r1.742865581554223 #
r0.8123206241051629 $
r0.8123206241051629 &

#96000
r1.190049729791962 !
r1.766061393737026 "
r1.766061393737026 #
r0.9020485158709212 $
r0.9020485158709212 &

#97000
r0.9457197942637749 !
r1.779662715135634 "
r1.779662715135634 #
r0.9849831385914364 $
r0.9849831385914364 &

#98000
r0.7160731153810692 !
r1.787632274310614 "
r1.787632274310614 #
r1.061046410603978 $
r1.061046410603978 &

#99000
r0.5219087372771960 !
r1.792333717302822 "
r1.792333717302822 #
r1.130468942528048 $
r1.130468942528048 &

#100000
r0.3702080179870663 !
r1.795141546498496 "
r1.795141546498496 #
r1.193637389134963 $
r1.193637389134963 &

#101000
r0.2582198712315912 !
r1.796845881737561 "
r1.796845881737561 #
r1.251004658180970 $
r1.251004658180970 &

#102000
r0.1786965483915092 !
r1.797900086314481 "
r1.797900086314481 #
r1.303039736832879 $
r1.303039736832879 &

#103000
r0.1236043165540553 !
r1.798565600355577 "
r1.798565600355577 #
r1.350200985071179 $
r1.350200985071179 &

#104000
r0.08595754288096528 !
r1.798994667398172 "
r1.798994667398172 #
r1.392922808766960 $
r1.392922808766960 &

#105000
r0.06036830526914795 !
r1.799277095258401 "
r1.799277095258401 #
r1.431609768058515 $
r1.431609768058515 &

#106000
r0.04295710029945072 !
r1.799466599418111 "
r1.799466599418111 #
r1.466634727989919 $
r1.466634727989919 &

#107000
r0.03104268990708532 !
r1.799595600676926 "
r1.799595600676926 #
r1.498339144376357 $
r1.498339144376357 &

#108000
r0.02281555306239734 !
r1.799683397355062 "
r1.799683397355062 #
r1.527034416246799 $
r1.527034416246799 &

#109000
r0.01706951852097926 !
r1.799740332123712 "
r1.799740332123712 #
r1.553003697055617 $
r1.553003697055617 &

#110000
r0.01300425171737683 !
r1.799769157646660 "
r1.799769157646660 #
r1.576503796848909 $
r1.576503796848909 &

#111000
r0.01008823503416364 !
r1.799763035657924 "
r1.799763035657924 #
r1.597766873020660 $
r1.597766873020660 &

#112000
r0.007966865264158022 !
r1.799694162020523 "
r1.799694162020523 #
r1.617001323098618 $
r1.617001323098618 &

#113000
r0.006402059238643652 !
r1.799468140794424 "
r1.799468140794424 #
r1.634389878175652 $
r1.634389878175652 &

#114000
r0.005233337381077524 !
r1.798750414000224 "
r1.798750414000224 #
r1.650077440006288 $
r1.650077440006288 &

#115000
r0.004354121320711335 !
r1.796348307727033 "
r1.796348307727033 #
r1.664122384849845 $
r1.664122384849845 &

#116000
r0.003700625804566459 !
r1.788400923150621 "
r1.788400923150621 #
r1.676336883001176 $
r1.676336883001176 &

#117000
r0.003253060346067320 !
r1.764867586293648 "
r1.764867586293648 #
r1.685889013641268 $
r1.685889013641268 &

#118000
r0.003048411136057754 !
r1.707134463786794 "
r1.707134463786794 #
r1.690661586155454 $
r1.690661586155454 &

#119000
r0.003211273990739056 !
r1.593953430508754 "
r1.593953430508754 #
r1.686840858630914 $
r1.686840858630914 &

#120000
r0.004051606630829859 !
r1.416705152887205 "
r1.416705152887205 #
r1.669554042732539 $
r1.669554042732539 &

#121000
r0.006378467380317400 !
r1.190049729791962 "
r1.190049729791962 #
r1.634680080695115 $
r1.634680080695115 &

#122000
r0.01237601623347059 !
r0.9457197942637749 "
r0.9457197942637749 #
r1.580699574155377 $
r1.580699574155377 &

#123000
r0.02764434337307674 !
r0.7160731153810692 "
r0.7160731153810692 #
r1.509289753266524 $
r1.509289753266524 &

#124000
r0.06453282197303230 !
r0.5219087372771960 "
r0.5219087372771960 #
r1.424499388796297 $
r1.424499388796297 &

#125000
r0.1438456719017217 !
r0.3702080179870663 "
r0.3702080179870663 #
r1.331314530590186 $
r1.331314530590186 &

#126000
r0.2879036912700221 !
r0.2582198712315912 "
r0.2582198712315912 #
r1.234447808115819 $
r1.234447808115819 &

#127000
r0.5032038139484220 !
r0.1786965483915092 "
r0.1786965483915092 #
r1.137686893991602 $
r1.137686893991602 &

#128000
r0.7675284229021218 !
r0.1236043165540553 "
r0.1236043165540553 #
r1.043731040513620 $
r1.043731040513620 &

#129000
r1.038341668375908 !
r0.08595754288096528 "
r0.08595754288096528 #
r0.9543072204377999 $
r0.9543072204377999 &

#130000
r1.275847194187605 !
r0.06036830526914795 "
r0.06036830526914795 #
r0.8703887160223006 $
r0.8703887160223006 &

#131000
r1.459372371971196 !
r0.04295710029945072 "
r0.04295710029945072 #
r0.7924148099996338 $
r0.7924148099996338 &

#132000
r1.587919703586919 !
r0.03104268990708532 "
r0.03104268990708532 #
r0.7204705323904561 $
r0.7204705323904561 &

#133000
r1.671659723897589 !
r0.02281555306239734 "
r0.02281555306239734 #
r0.6544189694470547 $
r0.6544189694470547 &

#134000
r1.723525974152705 !
r0.01706951852097926 "
r0.01706951852097926 #
r0.5939926424322579 $
r0.5939926424322579 &

#135000
r1.754631887091892 !
r0.01300425171737683 "
r0.01300425171737683 #
r0.5388539988786313 $
r0.5388539988786313 &

#136000
r1.772962548534996 !
r0.01008823503416364 "
r0.01008823503416364 #
r0.4886342126402637 $
r0.4886342126402637 &

#137000
r1.783699692037122 !
r0.007966865264158022 "
r0.007966865264158022 #
r0.4429573876411112 $
r0.4429573876411112 &

#138000
r1.790006449439427 !
r0.006402059238643652 "
r0.006402059238643652 #
r0.4014552042706627 $
r0.4014552042706627 &

#139000
r1.793745781831476 !
r0.005233337381077524 "
r0.005233337381077524 #
r0.3637754417982055 $
r0.3637754417982055 &

#140000
r1.795994464881150 !
r0.004354121320711335 "
r0.004354121320711335 #
r0.3295867072794140 $
r0.3295867072794140 &

#141000
r1.797370559429609 !
r0.003700625804566459 "
r0.003700625804566459 #
r0.2985810564492449 $
r0.2985810564492449 &

#142000
r1.798229332725167 !
r0.003253060346067320 "
r0.003253060346067320 #
r0.2704758932707756 $
r0.2704758932707756 &

#143000
r1.798776492521505 !
r0.003048411136057754 "
r0.003048411136057754 #
r0.2450163544584220 $
r0.2450163544584220 &

#144000
r1.799132503142626 !
r0.003211273990739056 "
r0.003211273990739056 #
r0.2219795438017531 $
r0.2219795438017531 &

#145000
r1.799368868642763 !
r0.004051606630829859 "
r0.004051606630829859 #
r0.2011844863264227 $
r0.2011844863264227 &

#146000
r1.799528562793250 !
r0.006378467380317400 "
r0.006378467380317400 #
r0.1825207292482466 $
r0.1825207292482466 &

#147000
r1.799637464739901 !
r0.01237601623347059 "
r0.01237601623347059 #
r0.1660308733014511 $
r0.1660308733014511 &

#148000
r1.799710541249188 !
r0.02764434337307674 "
r0.02764434337307674 #
r0.1521241405873390 $
r0.1521241405873390 &

#149000
r1.799754699562522 !
r0.06453282197303230 "
r0.06453282197303230 #
r0.1420255160240738 $
r0.1420255160240738 &

#150000
r1.799768865861253 !
r0.1438456719017217 "
r0.1438456719017217 #
r0.1384220618253408 $
r0.1384220618253408 &

#151000
r1.799738997276817 !
r0.2879036912700221 "
r0.2879036912700221 #
r0.1457985018025342 $
r0.1457985018025342 &

#152000
r1.799616200376109 !
r0.5032038139484220 "
r0.5032038139484220 #
r0.1695847161650760 $
r0.1695847161650760 &

#153000
r1.799232166152274 !
r0.7675284229021218 "
r0.7675284229021218 #
r0.2139448497136661 $
r0.2139448497136661 &

#154000
r1.797984935646011 !
r1.038341668375908 "
r1.038341668375908 #
r0.2795629636113183 $
r0.2795629636113183 &

#155000
r1.793796473784984 !
r1.275847194187605 "
r1.275847194187605 #
r0.3631373891037410 $
r0.3631373891037410 &

#156000
r1.780497422526834 !
r1.459372371971196 "
r1.459372371971196 #
r0.4588014266252324 $
r0.4588014266252324 &

#157000
r1.744143740982131 !
r1.587919703586919 "
r1.587919703586919 #
r0.5602151991160729 $
r0.5602151991160729 &

#158000
r1.663501607644985 !
r1.671659723897589 "
r1.671659723897589 #
r0.6620794386042806 $
r0.6620794386042806 &

#159000
r1.521018394598381 !
r1.723525974152705 "
r1.723525974152705 #
r0.7606997634062681 $
r0.7606997634062681 &

#160000
r1.318232461797035 !
r1.754631887091892 "
r1.754631887091892 #
r0.8538787317125569 $
r0.8538787317125569 &

#161000
r1.079256043768521 !
r1.772962548534996 "
r1.772962548534996 #
r0.9405376351507367 $
r0.9405376351507367 &

#162000
r0.8381464678922398 !
r1.783699692037122 "
r1.783699692037122 #
r1.020327490877911 $
r1.020327490877911 &

#163000
r0.6229175339179288 !
r1.790006449439427 "
r1.790006449439427 #
r1.093329927055088 $
r1.093329927055088 &

#164000
r0.4478686327594235 !
r1.793745781831476 "
r1.793745781831476 #
r1.159858135491314 $
r1.159858135491314 &

#165000
r0.3149002839871154 !
r1.795994464881150 "
r1.795994464881150 #
r1.220335467668933 $
r1.220335467668933 &

#166000
r0.2186409754105076 !
r1.797370559429609 "
r1.797370559429609 #
r1.275225662381928 $
r1.275225662381928 &

#167000
r0.1511509333879528 !
r1.798229332725167 "
r1.798229332725167 #
r1.324994641781496 $
r1.324994641781496 &

#168000
r0.1047397425500883 !
r1.798776492521505 "
r1.798776492521505 #
r1.370090667575957 $
r1.370090667575957 &

#169000
r0.07312971277502087 !
r1.799132503142626 "
r1.799132503142626 #
r1.410934841886062 $
r1.410934841886062 &

#170000
r0.05164822672105383 !
r1.799368868642763 "
r1.799368868642763 #
r1.447917303220027 $
r1.447917303220027 &

#171000
r0.03700136826568432 !
r1.799528562793250 "
r1.799528562793250 #
r1.481396485362692 $
r1.481396485362692 &

#172000
r0.02694083860455842 !
r1.799637464739901 "
r1.799637464739901 #
r1.511699964258300 $
r1.511699964258300 &

#173000
r0.01995953275780891 !
r1.799710541249188 "
r1.799710541249188 #
r1.539126063185562 $
r1.539126063185562 &

#174000
r0.01505573708096868 !
r1.799754699562522 "
r1.799754699562522 #
r1.563945735301781 $
r1.563945735301781 &

#175000
r0.01156488346218468 !
r1.799768865861253 "
r1.799768865861253 #
r1.586404406483696 $
r1.586404406483696 &

#176000
r0.009044863605609490 !
r1.799738997276817 "
r1.799738997276817 #
r1.606723408872776 $
r1.606723408872776 &

#177000
r0.007199895961814685 !
r1.799616200376109 "
r1.799616200376109 #
r1.625099998392175 $
r1.625099998392175 &

#178000
r0.005830886048684456 !
r1.799232166152274 "
r1.799232166152274 #
r1.641702301713319 $
r1.641702301713319 &

#179000
r0.004803962522512669 !
r1.797984935646011 "
r1.797984935646011 #
r1.656645754016731 $
r1.656645754016731 &

#180000
r0.004032614328953756 !
r1.793796473784984 "
r1.793796473784984 #
r1.669907177892805 $
r1.669907177892805 &

#181000
r0.003472170777576824 !
r1.780497422526834 "
r1.780497422526834 #
r1.681072870298815 $
r1.681072870298815 &

#182000
r0.003126342128458118 !
r1.744143740982131 "
r1.744143740982131 #
r1.688810747580308 $
r1.688810747580308 &

#183000
r0.003065986112496184 !
r1.663501607644985 "
r1.663501607644985 #
r1.690240454888237 $
r1.690240454888237 &

#184000
r0.003479857348357155 !
r1.521018394598381 "
r1.521018394598381 #
r1.680908983100946 $
r1.680908983100946 &

#185000
r0.004843145893045969 !
r1.318232461797035 "
r1.318232461797035 #
r1.656024835014924 $
r1.656024835014924 &

#186000
r0.008426677895657124 !
r1.079256043768521 "
r1.079256043768521 #
r1.612474303373768 $
r1.612474303373768 &

#187000
r0.01761993563866835 !
r0.8381464678922398 "
r0.8381464678922398 #
r1.550210203607731 $
r1.550210203607731 &

#188000
r0.04064563285494717 !
r0.6229175339179288 "
r0.6229175339179288 #
r1.472145612874145 $
r1.472145612874145 &

#189000
r0.09381555049920377 !
r0.4478686327594235 "
r0.4478686327594235 #
r1.382931086251719 $
r1.382931086251719 &

#190000
r0.2002344037555702 !
r0.3149002839871154 "
r0.3149002839871154 #
r1.287545693120439 $
r1.287545693120439 &

#191000
r0.3774418471978991 !
r0.2186409754105076 "
r0.2186409754105076 #
r1.190329020413617 $
r1.190329020413617 &

#192000
r0.6194182037133800 !
r0.1511509333879528 "
r0.1511509333879528 #
r1.094573490317009 $
r1.094573490317009 &

#193000
r0.8923419497599494 !
r0.1047397425500883 "
r0.1047397425500883 #
r1.002513666283867 $
r1.002513666283867 &

#194000
r1.152012296256252 !
r0.07312971277502087 "
r0.07312971277502087 #
r0.9155061483199329 $
r0.9155061483199329 &

#195000
r1.366255514580888 !
r0.05164822672105383 "
r0.05164822672105383 #
r0.8342568932178478 $
r0.8342568932178478 &

#196000
r1.524054433313148 !
r0.03700136826568432 "
r0.03700136826568432 #
r0.7590252650536118 $
r0.7590252650536118 &

#197000
r1.630686693070987 !
r0.02694083860455842 "
r0.02694083860455842 #
r0.6897820115661366 $
r0.6897820115661366 &

#198000
r1.698408424334345 !
r0.01995953275780891 "
r0.01995953275780891 #
r0.6263218376723316 $
r0.6263218376723316 &

#199000
r1.739660575215987 !
r0.01505573708096868 "
r0.01505573708096868 #
r0.5683395326482419 $
r0.5683395326482419 &

#200000
r1.764165008885434 !
r0.01156488346218468 "
r0.01156488346218468 #
r0.5154796067076072 $
r0.5154796067076072 &

#201000
r1.778547875653723 !
r0.009044863605609490 "
r0.009044863605609490 #
r0.4673677273577301 $
r0.4673677273577301 &

#202000
r1.786975248720413 !
r0.007199895961814685 "
r0.007199895961814685 #
r0.4236300752078238 $
r0.4236300752078238 &

#203000
r1.791942928237671 !
r0.005830886048684456 "
r0.005830886048684456 #
r0.3839048671885310 $
r0.3839048671885310 &

#204000
r1.794905814785176 !
r0.004803962522512669 "
r0.004803962522512669 #
r0.3478489202453947 $
r0.3478489202453947 &

#205000
r1.796701154267431 !
r0.004032614328953756 "
r0.004032614328953756 #
r0.3151412410244745 $
r0.3151412410244745 &

#206000
r1.797809412901245 !
r0.003472170777576824 "
r0.003472170777576824 #
r0.2854851602176927 $
r0.2854851602176927 &

#207000
r1.798507516431576 !
r0.003126342128458118 "
r0.003126342128458118 #
r0.2586103122401045 $
r0.2586103122401045 &

#208000
r1.798956572558128 !
r0.003065986112496184 "
r0.003065986112496184 #
r0.2342756314668067 $
r0.2342756314668067 &

#209000
r1.799251494237343 !
r0.003479857348357155 "
r0.003479857348357155 #
r0.2122753733966753 $
r0.2122753733966753 &

#210000
r1.799448963766068 !
r0.004843145893045969 "
r0.004843145893045969 #
r0.1924550046561065 $
r0.1924550046561065 &

#211000
r1.799583157943131 !
r0.008426677895657124 "
r0.008426677895657124 #
r0.1747578529645108 $
r0.1747578529645108 &

#212000
r1.799674467474920 !
r0.01761993563866835 "
r0.01761993563866835 #
r0.1593545628504776 $
r0.1593545628504776 &

#213000
r1.799734009695696 !
r0.04064563285494717 "
r0.04064563285494717 #
r0.1469524886977472 $
r0.1469524886977472 &

#214000
r1.799765254553502 !
r0.09381555049920377 "
r0.09381555049920377 #
r0.1393599270767308 $
r0.1393599270767308 &

#215000
r1.799762407082518 !
r0.2002344037555702 "
r0.2002344037555702 #
r0.1400899318434600 $
r0.1400899318434600 &

#216000
r1.799700312071221 !
r0.3774418471978991 "
r0.3774418471978991 #
r0.1542564264752005 $
r0.1542564264752005 &

#217000
r1.799493823017948 !
r0.6194182037133800 "
r0.6194182037133800 #
r0.1870348644733376 $
r0.1870348644733376 &

#218000
r1.798843346450714 !
r0.8923419497599494 "
r0.8923419497599494 #
r0.2412105989746069 $
r0.2412105989746069 &

#219000
r1.796681102069956 !
r1.152012296256252 "
r1.152012296256252 #
r0.3155883631682730 $
r0.3155883631682730 &

#220000
r1.789511731787372 !
r1.366255514580888 "
r1.366255514580888 #
r0.4054498433825872 $
r0.4054498433825872 &

#221000
r1.768030294623379 !
r1.524054433313148 "
r1.524054433313148 #
r0.5044693796268188 $
r0.5044693796268188 &

#222000
r1.714365963845601 !
r1.630686693070987 "
r1.630686693070987 #
r0.6066504447282712 $
r0.6066504447282712 &

#223000
r1.606983078170719 !
r1.698408424334345 "
r1.698408424334345 #
r0.7074025508210710 $
r0.7074025508210710 &

#224000
r1.435449273001937 !
r1.739660575215987 "
r1.739660575215987 #
r0.8037484507214611 $
r0.8037484507214611 &

#225000
r1.212241648351114 !
r1.764165008885434 "
r1.764165008885434 #
r0.8940498165623421 $
r0.8940498165623421 &

#226000
r0.9681332054998353 !
r1.778547875653723 "
r1.778547875653723 #
r0.9776028285344600 $
r0.9776028285344600 &

#227000
r0.7360657270566607 !
r1.786975248720413 "
r1.786975248720413 #
r1.054284612691851 $
r1.054284612691851 &

#228000
r0.5381458461279507 !
r1.791942928237671 "
r1.791942928237671 #
r1.124301229433488 $
r1.124301229433488 &

#229000
r0.3825234104220598 !
r1.794905814785176 "
r1.794905814785176 #
r1.188027242964720 $
r1.188027242964720 &

#230000
r0.2671239678029868 !
r1.796701154267431 "
r1.796701154267431 #
r1.245910694542014 $
r1.245910694542014 &

#231000
r0.1849335577950456 !
r1.797809412901245 "
r1.797809412901245 #
r1.298419703022236 $
r1.298419703022236 &

#232000
r0.1278907382811595 !
r1.798507516431576 "
r1.798507516431576 #
r1.346013870797871 $
r1.346013870797871 &

#233000
r0.08887605815600841 !
r1.798956572558128 "
r1.798956572558128 #
r1.389129887340441 $
r1.389129887340441 &

#234000
r0.06235152931600321 !
r1.799251494237343 "
r1.799251494237343 #
r1.428175044107802 $
r1.428175044107802 &

#235000
r0.04430949467109637 !
r1.799448963766068 "
r1.799448963766068 #
r1.463525061716746 $
r1.463525061716746 &

#236000
r0.03197184982777601 !
r1.799583157943131 "
r1.799583157943131 #
r1.495524204491780 $
r1.495524204491780 &

#237000
r0.02346055212294417 !
r1.799674467474920 "
r1.799674467474920 #
r1.524486548131518 $
r1.524486548131518 &

#238000
r0.01752276798912047 !
r1.799734009695696 "
r1.799734009695696 #
r1.550697756746165 $
r1.550697756746165 &

#239000
r0.01332705786805298 !
r1.799765254553502 "
r1.799765254553502 #
r1.574416982972683 $
r1.574416982972683 &

#240000
r0.01032138845344563 !
r1.799762407082518 "
r1.799762407082518 #
r1.595878587529381 $
r1.595878587529381 &

