Tests/AMS/OSC/v3/inv.vcd
$date
    Sat Oct 15 15:24:33 2011
$end

$version
                 SystemC AMS 1.0 --- 1.0Beta2 --- unknown release date
$end

$timescale
      1 fs
$end

$scope module SystemC_AMS $end

$var real 1 !  v0 $end
$var real 1 "  v1 $end
$var real 1 #  v2 $end
$var real 1 $  o11 $end
$var real 1 %  o12 $end
$var real 1 &  o21 $end
$var real 1 '  o22 $end

$upscope $end

$enddefinitions $end


#0
r0.000000000000000 !
r0.000000000000000 "
r0.000000000000000 #
r0.000000000000000 $
r1.800000000000000 %
r0.000000000000000 &
r0.000000000000000 '

#1000
r0.05461968354029841 !
r0.05445635897809897 "
r0.05451076587626057 #
r0.1635373475781474 $
r1.800000000000000 %
r4.946081651053494e-05 &
r0.000000000000000 '

#2000
r0.1066776851196571 !
r0.1062733421269053 "
r0.1064080285417386 #
r0.3192378488431995 $
r1.800000000000000 %
r0.0001212069451016231 &
r0.000000000000000 '

#3000
r0.1538570017488860 !
r0.1530638077946864 "
r0.1533279856866865 #
r0.4600158065873891 $
r1.800000000000000 %
r0.0002329886428698591 &
r0.000000000000000 '

#4000
r0.1966236167561344 !
r0.1953081231760527 "
r0.1957461823389874 #
r0.5873015218124498 $
r1.800000000000000 %
r0.0003764004587247032 &
r0.000000000000000 '

#5000
r0.2353989972597836 !
r0.2334407560256550 "
r0.2340927292877066 #
r0.7023882020637116 $
r1.800000000000000 %
r0.0005442805094335645 &
r0.000000000000000 '

#6000
r0.2705643468857600 !
r0.2678546603784376 "
r0.2687566439337807 #
r0.8064451018863084 $
r1.800000000000000 %
r0.0007305493116698866 &
r0.000000000000000 '

#7000
r0.3024644522150124 !
r0.2989052432113252 "
r0.3000897764097649 #
r0.9005294037511664 $
r1.800000000000000 %
r0.0009300680849361626 &
r0.000000000000000 '

#8000
r0.3314111617728292 !
r0.3269139520877001 "
r0.3284103605926103 #
r0.9855969601796540 $
r1.800000000000000 %
r0.001138514273485387 &
r0.000000000000000 '

#9000
r0.3576865326639187 !
r0.3521715200000434 "
r0.3540062258477166 #
r1.062512006223513 $
r1.800000000000000 %
r0.001352272288165871 &
r0.000000000000000 '

#10000
r0.3815456766036465 !
r0.3749409001657047 "
r0.3771377019184696 #
r1.132055940993679 $
r1.800000000000000 %
r0.001568337694142188 &
r0.000000000000000 '

#11000
r0.4032193340626462 !
r0.3954599204010040 "
r0.3980402462785699 #
r1.194935267471519 $
r1.800000000000000 %
r0.001784233270700963 &
r0.000000000000000 '

#12000
r0.4229162024986214 !
r0.4139436838681572 "
r0.4169268204634485 #
r1.251788771282712 $
r1.800000000000000 %
r0.001997935547515608 &
r0.000000000000000 '

#13000
r0.4408250421678276 !
r0.4305867404292801 "
r0.4339900393636563 #
r1.303194011380550 $
r1.800000000000000 %
r0.002207810580213982 &
r0.000000000000000 '

#14000
r0.4571165807644517 !
r0.4455650505261302 "
r0.4494041151717596 #
r1.349673188593335 $
r1.800000000000000 %
r0.002412557869006075 &
r0.000000000000000 '

#15000
r0.5003594640125024 !
r0.4874948046630997 "
r0.4917551440494643 #
r1.391511596875405 $
r1.795790038517058 %
r0.08809781584966089 &
r1.795790038517058 '

#16000
r0.5677503127500456 !
r0.5536586545536468 "
r0.5582699870807269 #
r1.428609592448364 $
r1.783811176391489 %
r0.2510693619360556 &
r1.795788198182243 '

#17000
r0.6280121452881127 !
r0.6128155360840082 "
r0.6176853552793513 #
r1.460081544475518 $
r1.751248287864339 %
r0.3984314921759541 &
r1.795785527362480 '

#18000
r0.6809785183851867 !
r0.6647906528017171 "
r0.6698342202928499 #
r1.483925286349023 $
r1.685983542101809 %
r0.5316781051307313 &
r1.795781363123959 '

#19000
r0.7261969618060846 !
r0.7091269659634133 "
r0.7142655736356649 #
r1.497430350008312 $
r1.581215169002964 %
r0.6521591513968511 &
r1.795776015103642 '

#20000
r0.7631980696727302 !
r0.7453544563104190 "
r0.7505136779295993 #
r1.497971826892993 $
r1.440076617046179 %
r0.7610943770197556 &
r1.795769746832479 '

#21000
r0.7917920614288728 !
r0.7732860339628862 "
r0.7783942356555080 #
r1.483886364676381 $
r1.274341010795625 %
r0.8595859663708865 &
r1.795762782111951 '

#22000
r0.8122371518317396 !
r0.7931845868260247 "
r0.7981719157506592 #
r1.454963464015463 $
r1.099399010832185 %
r0.9486301903929601 &
r1.795755310453117 '

#23000
r0.8252327605446726 !
r0.8057546522574954 "
r0.8105525717009983 #
r1.412411973549035 $
r0.9292456726556195 %
r1.029128010954131 &
r1.795747491740035 '

#24000
r0.8317895006595249 !
r0.8120110967541514 "
r0.8165523877668855 #
r1.358458385585359 $
r0.7736914081845448 %
r1.101894599595203 &
r1.795739460246109 '

#25000
r0.8330596685482602 !
r0.8131087670642474 "
r0.8173278368101570 #
r1.295828474550057 $
r0.6378916081540983 %
r1.167667797872608 &
r1.795731328106297 '

#26000
r0.8301905417096843 !
r0.8101954411248383 "
r0.8140287712691446 #
r1.227299140580710 $
r0.5232481016384603 %
r1.227115613522958 &
r1.795723188328321 '

#27000
r0.8242266999381324 !
r0.8043141834417460 "
r0.8077007891517173 #
r1.155398792817861 $
r0.4287256834206373 %
r1.280842879713735 &
r1.795715117410602 '

#28000
r0.8160609902922885 !
r0.7963545765273714 "
r0.7992363965751764 #
r1.082254758806700 $
r0.3520208465946551 %
r1.329397204588136 &
r1.795707177622622 '

#29000
r0.8064217307803364 !
r0.7870402942328519 "
r0.7893624759538084 #
r1.009550181097752 $
r0.2903857613191518 %
r1.373274319869245 &
r1.795699418993904 '

#30000
r0.7958122178004401 !
r0.7768688789304571 "
r0.7785800261871276 #
r0.9385573410519968 $
r0.2413236956511821 %
r1.412703781866028 &
r1.791088611962747 '

#31000
r0.7843444867761968 !
r0.7659453225653917 "
r0.7669979879889294 #
r0.8702137114347557 $
r0.2028609079698459 %
r1.447074085895762 &
r1.769264973056392 '

#32000
r0.7717095113107537 !
r0.7539516206297205 "
r0.7543033239603849 #
r0.8052174128547555 $
r0.1738380159816844 %
r1.474747043046104 &
r1.720034540749763 '

#33000
r0.7572834091621169 !
r0.7402522488998448 "
r0.7398670444290313 #
r0.7441302730516004 $
r0.1539704215159034 %
r1.493272429439393 &
r1.633230815631073 '

#34000
r0.7403176077987612 !
r0.7240838615494058 "
r0.7229342497485896 #
r0.6874573780813256 $
r0.1434991965532466 %
r1.499878341015431 &
r1.507326332944575 '

#35000
r0.7202603555171679 !
r0.7048769719996214 "
r0.7029457088432528 #
r0.6356978327217495 $
r0.1430908795331794 %
r1.492385203638293 &
r1.350707491277414 '

#36000
r0.6970080297241223 !
r0.6825081904028838 "
r0.6797894713533122 #
r0.5893939463099256 $
r0.1540014051999214 %
r1.469911745170393 &
r1.177869406037336 '

#37000
r0.6709921704999491 !
r0.6573885802142738 "
r0.6538883171997824 #
r0.5491961126274910 $
r0.1783378786759369 %
r1.433072955286514 &
r1.003970376040390 '

#38000
r0.6431139451074387 !
r0.6303993413601426 "
r0.6261345793523234 #
r0.5159349128767846 $
r0.2190794009131782 %
r1.383712952943120 &
r0.8409054651879019 '

#39000
r0.6145923889076050 !
r0.6027408296994452 "
r0.5977385771329365 #
r0.4906634602447955 $
r0.2795788399596861 %
r1.324408335495191 &
r0.6958732854656190 '

#40000
r0.5867860478270182 !
r0.5757544782249369 "
r0.5700502836401956 #
r0.4746198007979639 $
r0.3624702803895224 %
r1.257971008894187 &
r0.5717983672683041 '

#41000
r0.5610183671601799 !
r0.5507481259172681 "
r0.5443846584174277 #
r0.4690737260487487 $
r0.4682606425914795 %
r1.187077425446127 &
r0.4685638564127853 '

#42000
r0.5384201965710117 !
r0.5288383749688302 "
r0.5218641354501578 #
r0.4750695938859817 $
r0.5942470816499452 %
r1.114053113104018 &
r0.3842958756718080 '

#43000
r0.5198047779331578 !
r0.5108255526275233 "
r0.5032937254953409 #
r0.4931380145441753 $
r0.7344287662833423 %
r1.040786041511847 &
r0.3163535993708225 '

#44000
r0.5055963424558934 !
r0.4971224888210089 "
r0.4890898799520896 #
r0.5230832378186798 $
r0.8806051528893367 %
r0.9687254734103125 &
r0.2619621882553809 '

#45000
r0.4958303647079201 !
r0.4877551114373495 "
r0.4792811096388756 #
r0.5639285998268682 $
r1.024169776224790 %
r0.8989379859572768 &
r0.2187793806425830 '

#46000
r0.4902267385981093 !
r0.4824360119067109 "
r0.4735815311584516 #
r0.6140332447056244 $
r1.157804013295088 %
r0.8322110369576475 &
r0.1854402412754624 '

#47000
r0.4883051304348147 !
r0.4806801200605443 "
r0.4715065091436456 #
r0.6713263273503909 $
r1.276485488686485 %
r0.7691654322886137 &
r0.1614067379629111 '

#48000
r0.4895012305238026 !
r0.4819211220295497 "
r0.4724890612800363 #
r0.7335759388025311 $
r1.377679965561183 %
r0.7103354750308576 &
r0.1466640208537305 '

#49000
r0.4932634591066266 !
r0.4856081481887000 "
r0.4759765722426427 #
r0.7986239912629025 $
r1.460975366116026 %
r0.6562241882750669 &
r0.1416602112672568 '

#50000
r0.4991245332057079 !
r0.4912771740736881 "
r0.4815022525284847 #
r0.8645516275282573 $
r1.527460854247015 %
r0.6073523322796236 &
r0.1473461013614893 '

#51000
r0.5067504504425581 !
r0.4985997653971013 "
r0.4887339477585446 #
r0.9297673697004037 $
r1.579057426560373 %
r0.5643167938978002 &
r0.1654301790465307 '

#52000
r0.5159717643835906 !
r0.5074141261787969 "
r0.4975052253266373 #
r0.9930275910053769 $
r1.617942687703660 %
r0.5278635248836480 &
r0.1985464237239287 '

#53000
r0.5267949748789760 !
r0.5177363335902626 "
r0.5078266013234003 #
r1.053408145501860 $
r1.646140828705672 %
r0.4989497642907794 &
r0.2500082818871802 '

#54000
r0.5393850594467827 !
r0.5297427897833374 "
r0.5198679480664936 #
r1.110247538250677 $
r1.665277466517477 %
r0.4787482590459367 &
r0.3229618255523115 '

#55000
r0.5540089399434892 !
r0.5437136240238971 "
r0.5339018629823645 #
r1.163077622810720 $
r1.676448697361497 %
r0.4685468041390310 &
r0.4190425259883197 '

#56000
r0.5709385188008960 !
r0.5599355761691233 "
r0.5502066013675935 #
r1.211550780289272 $
r1.680139664753090 %
r0.4695299160483406 &
r0.5370407075851860 '

#57000
r0.5903298588775562 !
r0.5785808433425265 "
r0.5689451170630174 #
r1.255366359861567 $
r1.676145554468356 %
r0.4824894594215335 &
r0.6723045649081275 '

#58000
r0.6121115223135611 !
r0.5995948846311061 "
r0.5900532198410837 #
r1.294196337206809 $
r1.663487902663625 %
r0.5075632895789428 &
r0.8173435574508005 '

#59000
r0.6359168147158030 !
r0.6226280092943679 "
r0.6131716221633344 #
r1.327612159804779 $
r1.640374847907186 %
r0.5441042863687264 &
r0.9634384011127618 '

#60000
r0.6610787993936819 !
r0.6470297615215835 "
r0.6376407875134624 #
r1.355022109806297 $
r1.604314808289271 %
r0.5907272386224313 &
r1.102503906494244 '

#61000
r0.6866847036131520 !
r0.6719028656706142 "
r0.6625552426901619 #
r1.375639478741771 $
r1.552523139823694 %
r0.6455033332321567 &
r1.228421537001475 '

#62000
r0.7116731547471449 !
r0.6962002332673777 "
r0.6868607980453560 #
r1.388509937215678 $
r1.482693361187863 %
r0.7062242488442011 &
r1.337560602147152 '

#63000
r0.7349563227965081 !
r0.7188470688711858 "
r0.7094767154935571 #
r1.392620742652598 $
r1.393998439442073 %
r0.7706593645086525 &
r1.428643687606868 '

#64000
r0.7555489457871015 !
r0.7388699398484484 "
r0.7294247371143333 #
r1.387087265565711 $
r1.287932054434834 %
r0.8367563571841723 &
r1.502208874726081 '

#65000
r0.7726823996477973 !
r0.7555108497595204 "
r0.7459430770466772 #
r1.371371936573516 $
r1.168522846427539 %
r0.9027643898804794 &
r1.559923925839273 '

#66000
r0.7858804792150526 !
r0.7683029098397351 "
r0.7585620205960016 #
r1.345462978151322 $
r1.041715620212041 %
r0.9672824314994677 &
r1.603946058538242 '

#67000
r0.7949810089474320 !
r0.7770917328099379 "
r0.7671252751233629 #
r1.309948920047445 $
r0.9141606200095481 %
r1.029249096833288 &
r1.636430145327739 '

#68000
r0.8001031115047801 !
r0.7820024442297488 "
r0.7717569615527734 #
r1.265967456280097 $
r0.7919348035297977 %
r1.087895061007205 &
r1.659213795799098 '

#69000
r0.8015754790290573 !
r0.7833677401145424 "
r0.7727896566027700 #
r1.215056082815476 $
r0.6796547157589627 %
r1.142676792930894 &
r1.673644713308720 '

#70000
r0.7998480252682080 !
r0.7816394270498183 "
r0.7706759067991330 #
r1.158959507057523 $
r0.5801552798107446 %
r1.193203852059636 &
r1.680485849034906 '

#71000
r0.7954065231918662 !
r0.7773030619260185 "
r0.7659028285152338 #
r1.099447456517699 $
r0.4946421971191418 %
r1.239164957115420 &
r1.679839324457810 '

#72000
r0.7887018014748646 !
r0.7708072362144158 "
r0.7589213487566139 #
r1.038176951385908 $
r0.4231072689810120 %
r1.280253435059987 &
r1.671061707549281 '

#73000
r0.7800974566572029 !
r0.7625114108988780 "
r0.7500940098503626 #
r0.9766104839257541 $
r0.3648106988993743 %
r1.316092393480689 &
r1.652693561219708 '

#74000
r0.7698363228421143 !
r0.7526524928508086 "
r0.7396615450300636 #
r0.9159853059945786 $
r0.3187081525016539 %
r1.346165054728408 &
r1.622488047388368 '

#75000
r0.7580267049841776 !
r0.7413311267370485 "
r0.7277292053566187 #
r0.8573213528482554 $
r0.2837738797248723 %
r1.369765684229590 &
r1.577674752786952 '

#76000
r0.7446526109639928 !
r0.7285219395662782 "
r0.7142770631940035 #
r0.8014542479606963 $
r0.2592205861815007 %
r1.385997365763578 &
r1.515581027722888 '

#77000
r0.7296137355802037 !
r0.7141135324538487 "
r0.6992000526669290 #
r0.7490823851542826 $
r0.2446414936709104 %
r1.393844935546698 &
r1.434584737542688 '

#78000
r0.7127962154028618 !
r0.6979793084296682 "
r0.6823787858565370 #
r0.7008208319290136 $
r0.2401055915680063 %
r1.392333477760053 &
r1.335105375755397 '

#79000
r0.6941635051857566 !
r0.6800685538917175 "
r0.6637705161535067 #
r0.6572578605101725 $
r0.2462248622128633 %
r1.380744714720808 &
r1.220147859242155 '

#80000
r0.6738443324729853 !
r0.6604947543986341 "
r0.6434972131182614 #
r0.6190106220963313 $
r0.2641814585662923 %
r1.358825677893550 &
r1.095031867670268 '

#81000
r0.6521908345615787 !
r0.6395942079419096 "
r0.6219038406707486 #
r0.5867736171506285 $
r0.2956601724887342 %
r1.326915266023609 &
r0.9663573586638268 '

#82000
r0.6297883544037471 !
r0.6179363219064667 "
r0.5995682895415583 #
r0.5613475145322574 $
r0.3426003262539034 %
r1.285945451319515 &
r0.8406603664723755 '

#83000
r0.6074135075506885 !
r0.5962821135413443 "
r0.5772595549713394 #
r0.5436297817425222 $
r0.4067000685693732 %
r1.237325394320850 &
r0.7232998632966103 '

#84000
r0.5859504662940594 !
r0.5755008144943929 "
r0.5558541064042053 #
r0.5345488131123510 $
r0.4887072998921763 %
r1.182756574080307 &
r0.6178886906973292 '

#85000
r0.5662831549355355 !
r0.5564622929989103 "
r0.5362281694082488 #
r0.5349360829822284 $
r0.5876955063485979 %
r1.124037534360466 &
r0.5262729333561000 '

#86000
r0.5491847031587382 !
r0.5399267045916124 "
r0.5191473054474873 #
r0.5453561430405137 $
r0.7006461645191333 %
r1.062902570157324 &
r0.4488733981681225 '

#87000
r0.5352264497393650 !
r0.5264537269770548 "
r0.5051756092018597 #
r0.5659406623665109 $
r0.8226098839329192 %
r1.000915123551769 &
r0.3851697360512673 '

#88000
r0.5247253940333345 !
r0.5163502995295967 "
r0.4946234178683479 #
r0.5962824363689346 $
r0.9474714074006239 %
r0.9394166750623445 &
r0.3341683704954355 '

#89000
r0.5177395696856688 !
r0.5096663126379490 "
r0.4875429706515614 #
r0.6354282655919627 $
r1.069048336403253 %
r0.8795205873832166 &
r0.2947763448703425 '

#90000
r0.5141076634775873 !
r0.5062345074731180 "
r0.4837682871506547 #
r0.6819735532220285 $
r1.182114780868558 %
r0.8221369048793317 &
r0.2660650640360214 '

#91000
r0.5135180827620435 !
r0.5057397286481241 "
r0.4829844192037973 #
r0.7342266556449555 $
r1.283033221083238 %
r0.7680155749690094 &
r0.2474426000431454 '

#92000
r0.5155883439755896 !
r0.5077983708001088 "
r0.4848069230509990 #
r0.7903945037815530 $
r1.369900048402109 %
r0.7177991340451445 &
r0.2387660565893694 '

#93000
r0.5199384938214149 !
r0.5120317380902287 "
r0.4888552660716911 #
r0.8487459842821181 $
r1.442306186175534 %
r0.6720795137012169 &
r0.2404206696670000 '

#94000
r0.5262488445264244 !
r0.5181236356173202 "
r0.4948104737527855 #
r0.9077274018959232 $
r1.500898412756911 %
r0.6314555520006069 &
r0.2533689589425638 '

#95000
r0.5342982979148448 !
r0.5258585170164549 "
r0.5024533251968257 #
r0.9660236293059619 $
r1.546909205533353 %
r0.5965865108221639 &
r0.2791328794132341 '

#96000
r0.5439823381935998 !
r0.5351393100582406 "
r0.5116822079738034 #
r1.022572010357143 $
r1.581757205188921 %
r0.5682318458685008 &
r0.3196303835003292 '

#97000
r0.5553094326079083 !
r0.5459836780749884 "
r0.5225093912895157 #
r1.076541957636765 $
r1.606753930369346 %
r0.5472605443356475 &
r0.3767796700674594 '

#98000
r0.5683734315266654 !
r0.5584962960643349 "
r0.5350333140672282 #
r1.127293188586817 $
r1.622907357676182 %
r0.5346098530714113 &
r0.4518508062875486 '

#99000
r0.5833009267677775 !
r0.5728160596088405 "
r0.5493858386718522 #
r1.174322442683690 $
r1.630792768261540 %
r0.5311803823647803 &
r0.5446947938136517 '

#100000
r0.6001784251330000 !
r0.5890430326704326 "
r0.5656593130973172 #
r1.217204788732034 $
r1.630461862916211 %
r0.5376759821687160 &
r0.6531435395211003 '

#101000
r0.6189729680643022 !
r0.6071587322844508 "
r0.5838270627760092 #
r1.255533109685791 $
r1.621378319628947 %
r0.5544256534389718 &
r0.7729105201982248 '

#102000
r0.6394662129057574 !
r0.6269597760614918 "
r0.6036773309868166 #
r1.288859332579905 $
r1.602398113131980 %
r0.5812439873741617 &
r0.8981413106433741 '

#103000
r0.6612209739283078 !
r0.6480239493556109 "
r0.6247796838914319 #
r1.316644090124564 $
r1.571848622824376 %
r0.6173805170507864 &
r1.022450195104143 '

#104000
r0.6835906111963100 !
r0.6697191640368296 "
r0.6464942913722265 #
r1.338227069415421 $
r1.527782718276905 %
r0.6615769971899446 &
r1.140049065928229 '

#105000
r0.7057702479252530 !
r0.6912543580362307 "
r0.6680230773942070 #
r1.352835203631241 $
r1.468459253225385 %
r0.7122124797244500 &
r1.246578221224685 '

#106000
r0.7268797192468723 !
r0.7117622575674298 "
r0.6884926338927945 #
r1.359644409604615 $
r1.393002775938599 %
r0.7674902011024817 &
r1.339445747815111 '

#107000
r0.7460628524068053 !
r0.7303985643444212 "
r0.7070534673359493 #
r1.357897595604986 $
r1.302048943613968 %
r0.8256172884821896 &
r1.417712956040446 '

#108000
r0.7625849106088005 !
r0.7464393295476692 "
r0.7229773713289047 #
r1.347058585490180 $
r1.198090119365854 %
r0.8849430259951946 &
r1.481699332902889 '

#109000
r0.7759096044819537 !
r0.7593578554137442 "
r0.7357343032798667 #
r1.326959773982979 $
r1.085307248407114 %
r0.9440419891925860 &
r1.532496824534981 '

#110000
r0.7857407978646649 !
r0.7688662276357309 "
r0.7450338940328873 #
r1.297895887744549 $
r0.9689027411456418 %
r1.001745031788734 &
r1.571526677748616 '

#111000
r0.7920227225877082 !
r0.7749153162059446 "
r0.7508254358470458 #
r1.260633450477495 $
r0.8541855099130184 %
r1.057130024163204 &
r1.600199160813819 '

#112000
r0.7949034151174096 !
r0.7776580083359612 "
r0.7532611065413076 #
r1.216336358106523 $
r0.7457428879603469 %
r1.109486171888156 &
r1.619680418451671 '

#113000
r0.7946743586575462 !
r0.7773887064485419 "
r0.7526354532277241 #
r1.166435123108850 $
r0.6469358303759591 %
r1.158263395224963 &
r1.630740643920873 '

#114000
r0.7917018104189013 !
r0.7744745966323823 "
r0.7493166361779705 #
r1.112478668184996 $
r0.5597742386629748 %
r1.203014375044259 &
r1.633650867406153 '

#115000
r0.7863625194159917 !
r0.7692913882172618 "
r0.7436821367757172 #
r1.056002460337555 $
r0.4850869008976278 %
r1.243333584071416 &
r1.628107091995325 '

#116000
r0.7789915068729238 !
r0.7621711687799679 "
r0.7360665836054410 #
r0.9984328203681812 $
r0.4228463929647992 %
r1.278796438890151 &
r1.613186702000585 '

#117000
r0.7698454250376642 !
r0.7533658540731683 "
r0.7267251873916619 #
r0.9410328685809727 $
r0.3725265478105727 %
r1.308903597921522 &
r1.587378145578077 '

#118000
r0.7590833554041015 !
r0.7430280646056755 "
r0.7158146228885642 #
r0.8848856509310071 $
r0.3334175160927956 %
r1.333040391967334 &
r1.548757225939108 '

#119000
r0.7467673835137500 !
r0.7312117564909683 "
r0.7033936808101102 #
r0.8309054641919416 $
r0.3048692680108859 %
r1.350467356622887 &
r1.495382495037101 '

#120000
r0.7328858061272087 !
r0.7178954789902449 "
r0.6894465433104476 #
r0.7798679516912180 $
r0.2864651001202191 %
r1.360359876736683 &
r1.425912340577170 '

#121000
r0.7173996610541002 !
r0.7030289881414209 "
r0.6739293813683118 #
r0.7324512535449733 $
r0.2781404795716219 %
r1.361906777018860 &
r1.340305740688141 '

#122000
r0.7003071396369365 !
r0.6865978217817146 "
r0.6568348464229290 #
r0.6892826035842161 $
r0.2802606489068016 %
r1.354457204257364 &
r1.240334157071686 '

#123000
r0.6817124513544101 !
r0.6686924326356342 "
r0.6382610337385851 #
r0.6509857910418047 $
r0.2936539829073338 %
r1.337680126686825 &
r1.129630093226988 '

#124000
r0.6618807096552153 !
r0.6495634382898396 "
r0.6184664838366967 #
r0.6182237753551421 $
r0.3195714338102320 %
r1.311686856426609 &
r1.013182595804022 '

#125000
r0.6412622363266918 !
r0.6296463373564551 "
r0.5978946064331752 #
r0.5917273206226110 $
r0.3595186490168575 %
r1.277075859493711 &
r0.8964557108610739 '

#126000
r0.6204777705086781 !
r0.6095471145977558 "
r0.5771589987435244 #
r0.5722964294867283 $
r0.4149101158075624 %
r1.234887454363230 &
r0.7844671990052716 '

#127000
r0.6002662476268449 !
r0.5899903540986310 "
r0.5569913194734911 #
r0.5607603650487931 $
r0.4865485177332516 %
r1.186487556150174 &
r0.6811282226651768 '

#128000
r0.5814052422294888 !
r0.5717399476712824 "
r0.5381618252749517 #
r0.5578887271742107 $
r0.5740375930217713 %
r1.133418288001512 &
r0.5889740139370955 '

#129000
r0.5646196786943107 !
r0.5555080332191220 "
r0.5213881987752699 #
r0.5642621227570865 $
r0.6753424278571191 %
r1.077253787931616 &
r0.5092423015485273 '

#130000
r0.5504971604328250 !
r0.5418705579496313 "
r0.5072510421995380 #
r0.5801313448622893 $
r0.7867282481512351 %
r1.019487415719705 &
r0.4421650839894081 '

#131000
r0.5394275236690441 !
r0.5312070996455609 "
r0.4961336484929393 #
r0.6053072248752592 $
r0.9031830607020667 %
r0.9614610469322853 &
r0.3873347109647436 '

#132000
r0.5315787499044666 !
r0.5236770717748007 "
r0.4881981647219668 #
r0.6391190614882991 $
r1.019214158050189 %
r0.9043349249129352 &
r0.3440479384977196 '

#133000
r0.5269118219444033 !
r0.5192348573219449 "
r0.4834006938008766 #
r0.6804574324145064 $
r1.129740613597303 %
r0.8490899406527186 &
r0.3115823712282877 '

#134000
r0.5252269658817924 !
r0.5176762633276140 "
r0.4815377341654143 #
r0.7278885011148436 $
r1.230788765395824 %
r0.7965524622599772 &
r0.2893977766522095 '

#135000
r0.5262272206481511 !
r0.5187022013211182 "
r0.4823098686446433 #
r0.7798062596744472 $
r1.319823572328133 %
r0.7474330309394657 &
r0.2772751604225066 '

#136000
r0.5295844273115167 !
r0.5219846777816773 "
r0.4853877857929964 #
r0.8345844183103847 $
r1.395716068675699 %
r0.7023724725758058 &
r0.2754103620636920 '

#137000
r0.5349963110020738 !
r0.5272237875586062 "
r0.4904693182507285 #
r0.8906987856533372 $
r1.458461506803570 %
r0.6619906311580714 &
r0.2844674596994339 '

#138000
r0.5422282917745028 !
r0.5341893832725184 "
r0.4973211588746177 #
r0.9468061142027243 $
r1.508792767011027 %
r0.6269327197189145 &
r0.3055727641948697 '

#139000
r0.5511372993099291 !
r0.5427447331364090 "
r0.5058025566453960 #
r1.001779006177366 $
r1.547802388154847 %
r0.5979055829143685 &
r0.3402018442097285 '

#140000
r0.5616761956792685 !
r0.5528507952978620 "
r0.5158696178671639 #
r1.054704783954585 $
r1.576633660472918 %
r0.5756918248897092 &
r0.3899004218948552 '

#141000
r0.5738773835833534 !
r0.5645496871764765 "
r0.5275588006538832 #
r1.104859030038796 $
r1.596255177551987 %
r0.5611268413749171 &
r0.4558127559118305 '

#142000
r0.5878149609865529 !
r0.5779266882446308 "
r0.5409489629486594 #
r1.151663531377503 $
r1.607305712806908 %
r0.5550270808023406 &
r0.5380827302814565 '

#143000
r0.6035482781482295 !
r0.5930535962178544 "
r0.5561048120723542 #
r1.194635783720605 $
r1.609988009912880 %
r0.5580709027178327 &
r0.6353128685391293 '

#144000
r0.6210558274173331 !
r0.6099223366845120 "
r0.5730106780676998 #
r1.233334869360787 $
r1.603998021447298 %
r0.5706539728087576 &
r0.7443308982321972 '

#145000
r0.6401741803089190 !
r0.6283835369496831 "
r0.5915093246454000 #
r1.267307766136778 $
r1.588496675847782 %
r0.5927592757672245 &
r0.8604394832625348 '

#146000
r0.6605582659958898 !
r0.6481063912822080 "
r0.6112621017985369 #
r1.296041747835806 $
r1.562158642782045 %
r0.6238850112408283 &
r0.9781210568053499 '

#147000
r0.6816749063369830 !
r0.6685717929818504 "
r0.6317423717005300 #
r1.318932302697474 $
r1.523353913766585 %
r0.6630567683218895 &
r1.091958500331575 '

#148000
r0.7028331653307586 !
r0.6891023517876025 "
r0.6522657785627280 #
r1.335280032125402 $
r1.470510052246391 %
r0.7089212635556876 &
r1.197452475093041 '

#149000
r0.7232465469703809 !
r0.7089243618483378 "
r0.6720523948695488 #
r1.344330345778930 $
r1.402641905384541 %
r0.7598929579093374 &
r1.291503508523268 '

#150000
r0.7421158084821932 !
r0.7272504743146215 "
r0.6903094913870327 #
r1.345361998330594 $
r1.319926789644821 %
r0.8143137758532538 &
r1.372499903093645 '

#151000
r0.7587173107083817 !
r0.7433679485612823 "
r0.7063198222950369 #
r1.337813757228788 $
r1.224107570242128 %
r0.8705913243359135 &
r1.440099033521846 '

#152000
r0.7724802373600214 !
r0.7567157591245458 "
r0.7195187312640987 #
r1.321419155995480 $
r1.118513671967530 %
r0.9272955717531862 &
r1.494850842796739 '

#153000
r0.7830377088503111 !
r0.7669355522495943 "
r0.7295450976145481 #
r1.296309069895435 $
r1.007634934719281 %
r0.9832092888190183 &
r1.537796894584085 '

#154000
r0.7902428000341915 !
r0.7738874667966082 "
r0.7362571499181121 #
r1.263049199621812 $
r0.8963867069318304 %
r1.037338217127100 &
r1.570126422392672 '

#155000
r0.7941494759355321 !
r0.7776308690074715 "
r0.7397131963876378 #
r1.222601939978143 $
r0.7893318284310474 %
r1.088891601352499 &
r1.592918195421655 '

#156000
r0.7949669029318179 !
r0.7783785025046228 "
r0.7401257668935363 #
r1.176227419664231 $
r0.6901042547408440 %
r1.137243752665746 &
r1.606961444686584 '

#157000
r0.7930000736067981 !
r0.7764370223933013 "
r0.7378021302010920 #
r1.125354291723500 $
r0.6011510451807476 %
r1.181884934477692 &
r1.612634010318221 '

#158000
r0.7885893143539351 !
r0.7721464887476399 "
r0.7330837622787097 #
r1.071452435275402 $
r0.5237707262465710 %
r1.222367130104882 &
r1.609818652342573 '

#159000
r0.7820577447596537 !
r0.7658278718554309 "
r0.7262938246387352 #
r1.015930715224464 $
r0.4583453841483869 %
r1.258248726029356 &
r1.597855537236450 '

#160000
r0.7736718113179013 !
r0.7577436626698383 "
r0.7176977554300455 #
r0.9600703747275603 $
r0.4046516112043164 %
r1.289042854690225 &
r1.575555817162453 '

#161000
r0.7636175753161242 !
r0.7480742402735511 "
r0.7074796318841848 #
r0.9049941000737063 $
r0.3621651214015393 %
r1.314177347400154 &
r1.541328262117982 '

#162000
r0.7519948731811762 !
r0.7369120998854930 "
r0.6957364066130575 #
r0.8516646207823225 $
r0.3303144763503969 %
r1.332978758897404 &
r1.493477771785961 '

#163000
r0.7388315812374848 !
r0.7242761794820174 "
r0.6824922432770015 #
r0.8009046183655886 $
r0.3086721423101259 %
r1.344695385630915 &
r1.430693766064188 '

#164000
r0.7241189124383627 !
r0.7101472393503981 "
r0.6677338822802417 #
r0.7534302705859791 $
r0.2970896350020074 %
r1.348569763483023 &
r1.352647357394722 '

#165000
r0.7078644396791990 !
r0.6945210261591649 "
r0.6514637398994984 #
r0.7098923246910127 $
r0.2957874348072489 %
r1.343956881046849 &
r1.260500222201872 '

#166000
r0.6901531354841244 !
r0.6774695398681654 "
r0.6337610384618709 #
r0.6709197355780193 $
r0.3054007880529723 %
r1.330463978236141 &
r1.157086883799505 '

#167000
r0.6712014357094985 !
r0.6591954129100176 "
r0.6148359758419082 #
r0.6371605262895468 $
r0.3269625449518810 %
r1.308072298171878 &
r1.046634504559527 '

#168000
r0.6513888032141786 !
r0.6400638465989407 "
r0.5950614020942259 #
r0.6093122173592153 $
r0.3617828451375007 %
r1.277201834548130 &
r0.9340905044176276 '

#169000
r0.6312564195356508 !
r0.6206016816085260 "
r0.5749716195043552 #
r0.5881308280767357 $
r0.4111803928757202 %
r1.238698892571797 &
r0.8243037351647488 '

#170000
r0.6114710310394189 !
r0.6014615829527934 "
r0.5552263264418864 #
r0.5744057549720976 $
r0.4760528194050856 %
r1.193753185462001 &
r0.7213380888078651 '

