Tests/AMS/PLL/v8/pll.vcd
$date
    Fri Oct 14 14:23:15 2011
$end

$version
                 SystemC AMS 1.0 --- 1.0Beta2 --- unknown release date
$end

$timescale
      1 ns
$end

$scope module SystemC_AMS $end

$var real 1 !  vco0 $end
$var real 1 "  lpf0 $end
$var real 1 #  vco1 $end
$var real 1 $  lpf1 $end
$var real 1 %  vco2 $end
$var real 1 &  lpf2 $end

$upscope $end

$enddefinitions $end


#0
r0.000000000000000 !
r0.000000000000000 "
r0.000000000000000 #
r0.000000000000000 $
r0.000000000000000 %
r0.000000000000000 &

#10000
r0.9950833498101802 !
r0.000000000000000 "
r0.3709204694129827 #
r0.000000000000000 $
r-0.9980544387588794 %
r0.000000000000000 &

#20000
r0.9869009419817436 !
r0.000000000000000 "
r0.4284998775316674 #
r0.000000000000000 $
r-0.9999999019318931 %
r0.000000000000000 &

#30000
r0.9748236870074577 !
r0.000000000000000 "
r0.4843881923967074 #
r0.000000000000000 $
r-0.9979988223484800 %
r0.000000000000000 &

#40000
r0.9588992482951333 !
r0.000000000000000 "
r0.5383648483622727 #
r0.000000000000000 $
r-0.9920590973555495 %
r0.000000000000000 &

#50000
r0.9391904723291837 !
r0.000000000000000 "
r0.5902168242268557 #
r0.000000000000000 $
r-0.9822041683340466 %
r0.000000000000000 &

#60000
r0.9157751406442634 !
r0.000000000000000 "
r0.6397394839306333 #
r0.000000000000000 $
r-0.9684729281865301 %
r0.000000000000000 &

#70000
r0.8887456628570851 !
r0.000000000000000 "
r0.6867373841605059 #
r0.000000000000000 $
r-0.9509195678446555 %
r0.000000000000000 &

#80000
r0.8582087119678812 !
r0.000000000000000 "
r0.7310250456755643 #
r0.000000000000000 $
r-0.9296133624023246 %
r0.000000000000000 &

#90000
r0.8242848033708055 !
r0.000000000000000 "
r0.7724276853089165 #
r0.000000000000000 $
r-0.9046383977185390 %
r0.000000000000000 &

#100000
r0.7871078192347311 !
r0.000000000000000 "
r0.8107819057569965 #
r0.000000000000000 $
r-0.8760932385689296 %
r0.000000000000000 &

#110000
r0.7468244801314944 !
r0.000000000000000 "
r0.8459363404340725 #
r0.000000000000000 $
r-0.8440905396556171 %
r0.000000000000000 &

#120000
r0.7035937659968291 !
r0.000000000000000 "
r0.8777522508470074 #
r0.000000000000000 $
r-0.8087566010105699 %
r0.000000000000000 &

#130000
r0.6575862887091900 !
r0.000000000000000 "
r0.9061040741327081 #
r0.000000000000000 $
r-0.7702308695470790 %
r0.000000000000000 &

#140000
r0.6089836187626143 !
r0.000000000000000 "
r0.9308799185973821 #
r0.000000000000000 $
r-0.7286653887264982 %
r0.000000000000000 &

#150000
r0.5579775686909335 !
r0.000000000000000 "
r0.9519820053019338 #
r0.000000000000000 $
r-0.6842241985121646 %
r0.000000000000000 &

#160000
r0.5047694360713328 !
r0.000000000000000 "
r0.9693270539507668 #
r0.000000000000000 $
r-0.6370826879786057 %
r0.000000000000000 &

#170000
r0.4495692090947782 !
r0.000000000000000 "
r0.9828466115610632 #
r0.000000000000000 $
r-0.5874269031309896 %
r0.000000000000000 &

#180000
r0.3925947378385612 !
r0.000000000000000 "
r0.9924873226154335 #
r0.000000000000000 $
r-0.5354528126665399 %
r0.000000000000000 &

#190000
r0.3340708745115702 !
r0.000000000000000 "
r0.9982111396317679 #
r0.000000000000000 $
r-0.4813655345756163 %
r0.000000000000000 &

#200000
r0.2742285860653469 !
r0.000000000000000 "
r0.9999954733192663 #
r0.000000000000000 $
r-0.4253785266347170 %
r0.000000000000000 &

#210000
r0.2133040426730475 !
r0.000000000000000 "
r0.9978332817280486 #
r0.000000000000000 $
r-0.3677127439861536 %
r0.000000000000000 &

#220000
r0.1515376856736652 !
r0.000000000000000 "
r0.9917330980405140 #
r0.000000000000000 $
r-0.3085957671290500 %
r0.000000000000000 &

#230000
r0.08917327865991218 !
r0.000000000000000 "
r0.9817189968947684 #
r0.000000000000000 $
r-0.2482609037630834 %
r0.000000000000000 &

#240000
r0.02645694545468428 !
r0.000000000000000 "
r0.9678304993730263 #
r0.000000000000000 $
r-0.1869462680295822 %
r0.000000000000000 &

#250000
r-0.03636380122722461 !
r0.000000000000000 "
r0.9501224170299553 #
r0.000000000000000 $
r-0.1248938407837940 %
r0.000000000000000 &

#260000
r-0.09904103659873016 !
r-5.722512025899896e-05 "
r0.9286646355765098 #
r0.0005365750125017027 $
r-0.06234851460700058 %
r-3.602447398456760e-05 &

#270000
r-0.1613274022463261 !
r-0.0002196490169740056 "
r0.9035418390729590 #
r0.001662198128243949 $
r0.0004428726726198328 %
r-7.173743203828658e-05 &

#280000
r-0.2229767318369813 !
r-0.0004862353869747859 "
r0.8748515426481511 #
r0.002884145401229017 $
r0.06323228624064765 %
r-2.560786445302283e-05 &

#290000
r-0.2837451056087290 !
r-0.0008725216527960069 "
r0.8427044288122291 #
r0.004184478435150457 $
r0.1257719300510645 %
r0.0001199818471798245 &

#300000
r-0.3433921430986795 !
r-0.001392143854380685 "
r0.8072259085509690 #
r0.005544017317113568 $
r0.1878155013152316 %
r0.0003810696025503893 &

#310000
r-0.4016818777304250 !
r-0.002056621351219120 "
r0.7685545719599067 #
r0.006942643040986908 $
r0.2491187403227475 %
r0.0007718613158843267 &

#320000
r-0.4583837323562745 !
r-0.002875174925819300 "
r0.7268416966576131 #
r0.008359614279162552 $
r0.3094403578365094 %
r0.001304507292972398 &

#330000
r-0.5132734761761213 !
r-0.003854581264930970 "
r0.6822507038779722 #
r0.009773894191920084 $
r0.3685429451655061 %
r0.001988910958867877 &

#340000
r-0.5661341573827003 !
r-0.004999066148525510 "
r0.6349565624977270 #
r0.01116448215021616 $
r0.4261938649423984 %
r0.002832572908033897 &

#350000
r-0.6167570059226619 !
r-0.006310238056113450 "
r0.5851451415991610 #
r0.01251074515489113 $
r0.4821661208788995 %
r0.003840472697367140 &

#360000
r-0.6649423008955473 !
r-0.007787063250050269 "
r0.5330125125730867 #
r0.01379274372361186 $
r0.5362392049595289 %
r0.005014990216310947 &

#370000
r-0.7105001973371541 !
r-0.009425882727075065 "
r0.4787642022240992 #
r0.01499154708756379 $
r0.5881999206604848 %
r0.006355867855909157 &

#380000
r-0.7532515074461392 !
r-0.01122047075390759 "
r0.4226143988376356 #
r0.01608953269288570 $
r0.6378431808432374 %
r0.007860214069070320 &

#390000
r-0.7930284317064646 !
r-0.01316213403194491 "
r0.3647851136942167 #
r0.01707066523567492 $
r0.6849727789727839 %
r0.009522548276560698 &

#400000
r-0.8296752358242261 !
r-0.01523984988153675 "
r0.3055053010562571 #
r0.01792075077125735 $
r0.7294021322516221 %
r0.01133488643640897 &

#410000
r-0.8630488699240759 !
r-0.01744044120925597 "
r0.2450099401920274 #
r0.01862766182409014 $
r0.7709549951481893 %
r0.01328686596752276 &

#420000
r-0.8930195270245251 !
r-0.01974878543274735 "
r0.1835390835241705 #
r0.01918152987854486 $
r0.8094661416407529 %
r0.01536590811029753 &

#430000
r-0.9194711384181357 !
r-0.02214805399708843 "
r0.1213368754812001 #
r0.01957490214597903 $
r0.8447820143045448 %
r0.01755741522654691 &

#440000
r-0.9423018042064524 !
r-0.02461997863311351 "
r0.05865054707478098 #
r0.01980286007179447 $
r0.8767613381528447 %
r0.01984499999661989 &

#450000
r-0.9614241578645266 !
r-0.02714514008966664 "
r-0.004270608390371718 #
r0.01986309765835050 $
r0.9052756969145560 %
r0.02221074297114365 &

#460000
r-0.9767656643204383 !
r-0.02970327472481131 "
r-0.06717627275543313 #
r0.01975595832546427 $
r0.9302100692051305 %
r0.02463547448602871 &

#470000
r-0.9882688516164881 !
r-0.03227359407078793 "
r-0.1298161476472749 #
r0.01948442969886335 $
r0.9514633218383519 %
r0.02709907655922671 &

#480000
r-0.9958914767571608 !
r-0.03483511229768115 "
r-0.1919410002313971 #
r0.01905409639690791 $
r0.9689486573471183 %
r0.02958080006260551 &

#490000
r-0.9996066268327959 !
r-0.03736697639356065 "
r-0.2533037039448313 #
r0.01847305156543755 $
r0.9825940126449469 %
r0.03205959220779735 &

#500000
r-0.9994027569275191 !
r-0.03984879385504744 "
r-0.3136602681264773 #
r0.01775176857795021 $
r0.9923424056782654 %
r0.03451442920569010 &

#510000
r-0.9952836666681902 !
r-0.04226095274116308 "
r-0.3727708506077047 #
r0.01690293496193282 $
r0.9981522269028076 %
r0.03692464885907838 &

#520000
r-0.9872684175433707 !
r-0.04458492908292044 "
r-0.4304007475618533 #
r0.01594125122094335 $
r0.9999974724737943 %
r0.03927027782946677 &

#530000
r-0.9753911933157834 !
r-0.04680357454768406 "
r-0.4863213552304587 #
r0.01488319893756768 $
r0.9978679161748428 %
r0.04153234601981672 &

#540000
r-0.9597011059693784 !
r-0.04890138170432487 "
r-0.5403110985369040 #
r0.01374678160381225 $
r0.9917692173279249 %
r0.04369318481471358 &

#550000
r-0.9402619496715456 !
r-0.05086472809004238 "
r-0.5921563220588048 #
r0.01255123951418635 $
r0.9817229622294039 %
r0.04573670985926705 &

#560000
r-0.9171519052060462 !
r-0.05268209131719891 "
r-0.6416521393298281 #
r0.01131674431666199 $
r0.9677666370415945 %
r0.04764867989609271 &

#570000
r-0.8904631972650080 !
r-0.05434422888706895 "
r-0.6886032369627467 #
r0.01006407973338495 $
r0.9499535305145034 %
r0.04941692436235889 &

#580000
r-0.8603017068591506 !
r-0.05584432209979623 "
r-0.7328246306479129 #
r0.008814312776022407 $
r0.9283525654275402 %
r0.05103153819458343 &

#590000
r-0.8267865409283438 !
r-0.05717808185385559 "
r-0.7741423706470349 #
r0.007588460737593172 $
r0.9030480582244246 %
r0.05248504064190254 &

#600000
r-0.7900495610433861 !
r-0.05834381473733742 "
r-0.8123941949418697 #
r0.006407159295206618 $
r0.8741394069360167 %
r0.05377249547826506 &

#610000
r-0.7502348728848450 !
r-0.05934244844520015 "
r-0.8474301287142874 #
r0.005290337019750220 $
r0.8417407081366516 %
r0.05489159064147487 &

#620000
r-0.7074982779815358 !
r-0.06017751620060138 "
r-0.8791130293105167 #
r0.004256901461098788 $
r0.8059803043439469 %
r0.05584267600014455 &

#630000
r-0.6620066890027615 !
r-0.06085510050380936 "
r-0.9073190762670514 #
r0.003324441764553355 $
r0.7670002639334580 %
r0.05662875864551403 &

#640000
r-0.6139375097370180 !
r-0.06138373716847632 "
r-0.9319382063398732 #
r0.002508952481265406 $
r0.7249557962813894 %
r0.05725545581030774 &

#650000
r-0.5634779807664348 !
r-0.06177428122205140 "
r-0.9528744937758823 #
r0.001824582869093790 $
r0.6800146054546381 %
r0.05773090621780402 &

#660000
r-0.5108244917701110 !
r-0.06203973683519720 "
r-0.9700464762921186 #
r0.001283415548588791 $
r0.6323561863227298 %
r0.05806564134776523 &

#670000
r-0.4561818613679991 !
r-0.06219505399531888 "
r-0.9833874273835274 #
r0.0008952778904326961 $
r0.5821710674571352 %
r0.05827241875912322 &

#680000
r-0.3997625854552320 !
r-0.06225689514361694 "
r-0.9928455756655354 #
r0.0006675889751739722 $
r0.5296600055988053 %
r0.05836602022055730 &

#690000
r-0.3417860550774521 !
r-0.06224337544626109 "
r-0.9983842719779705 #
r0.0006052443933484464 $
r0.4750331368055093 %
r0.05836301795877855 &

#700000
r-0.2824777450609321 !
r-0.06217378076218392 "
r-0.9999821049386731 #
r0.0007105405541042869 $
r0.4185090896307464 %
r0.05828151283132097 &

#710000
r-0.2220683748347502 !
r-0.06206826769749690 "
r-0.9976329655474695 #
r0.0009831395531766452 $
r0.3603140658324412 %
r0.05814084865842212 &

#720000
r-0.1607930431611408 !
r-0.06194755039560155 "
r-0.9913460613146160 #
r0.001420075026160948 $
r0.3006808941623653 %
r0.05796130730134298 &

#730000
r-0.09889033881725300 !
r-0.06183257889975455 "
r-0.9811458802344043 #
r0.002015798789755153 $
r0.2398480627491618 %
r0.05776378934816113 &

#740000
r-0.03660142963773191 !
r-0.06174421403926236 "
r-0.9670721047571975 #
r0.002762267460686535 $
r0.1780587354647838 %
r0.05756948546031298 &

#750000
r0.02583086727827511 !
r-0.06170290383078145 "
r-0.9491794757450625 #
r0.003649067647500190 $
r0.1155597574645903 %
r0.05739954354322563 &

#760000
r0.08816303098221272 !
r-0.06172836635253460 "
r-0.9275376062406091 #
r0.004663577741705218 $
r0.05260065482571981 %
r0.05727473693301956 &

#770000
r0.1501517940877601 !
r-0.06183928394272062 "
r-0.9022307447484059 #
r0.005791163798734228 $
r-0.01056736711075019 %
r0.05721513874055223 &

#780000
r0.2115551081531173 !
r-0.06205301339598923 "
r-0.8733574876351592 #
r0.007015406501918732 $
r-0.07369242244723379 %
r0.05723980736720584 &

#790000
r0.2721331126333836 !
r-0.06238531658641525 "
r-0.8410304402091756 #
r0.008318355749765064 $
r-0.1365229366242562 %
r0.05736648800791530 &

#800000
r0.3316491026672181 !
r-0.06285011563557001 "
r-0.8053758260501165 #
r0.009680809003227129 $
r-0.1988086280343938 %
r0.05761133469081944 &

#810000
r0.3898704906787457 !
r-0.06345927637442687 "
r-0.7665330442333503 #
r0.01108260917989793 $
r-0.2603014762780997 %
r0.05798865707495889 &

#820000
r0.4465697565558897 !
r-0.06422242342303389 "
r-0.7246541742336757 #
r0.01250295759013605 $
r-0.3207566743563695 %
r0.05851069584336918 &

#830000
r0.5015253810195861 !
r-0.06514678973790768 "
r-0.6799034285026601 #
r0.01392073717974085 $
r-0.3799335624369448 %
r0.05918743009471158 &

#840000
r0.5545227567321624 !
r-0.06623710296032569 "
r-0.6324565529916650 #
r0.01531484117803882 $
r-0.4375965411307536 %
r0.06002641965837464 &

#850000
r0.6053550717127132 !
r-0.06749551034606785 "
r-0.5825001762355010 #
r0.01666450215184439 $
r-0.4935159624646235 %
r0.06103268474196367 &

#860000
r0.6538241597350641 !
r-0.06892154347617800 "
r-0.5302311080137663 #
r0.01794961643695531 $
r-0.5474689969279546 %
r0.06220862477253569 &

#870000
r0.6997413125797621 !
r-0.07051212334696857 "
r-0.4758555890601214 #
r0.01915105896130455 $
r-0.5992404751007643 %
r0.06355397772017758 &

#880000
r0.7429280492925115 !
r-0.07226160582419755 "
r-0.4195884937836418 #
r0.02025098358862526 $
r-0.6486237024364158 %
r0.06506582060101883 &

#890000
r0.7832168379621238 !
r-0.07416186682988070 "
r-0.3616524884888549 #
r0.02123310429871775 $
r-0.6954212457752196 %
r0.06673861125313842 &

#900000
r0.8204517659632512 !
r-0.07620242601960897 "
r-0.3022771481184418 #
r0.02208295277946423 $
r-0.7394456901082378 %
r0.06856427086991417 &

#910000
r0.8544891551027890 !
r-0.07837060711272194 "
r-0.2416980350801604 #
r0.02278810833490951 $
r-0.7805203639998840 %
r0.07053230616829431 &

#920000
r0.8851981186516584 !
r-0.08065173246647789 "
r-0.1801557442421568 #
r0.02333839641016083 $
r-0.8184800319212368 %
r0.07262996947168568 &

#930000
r0.9124610578222205 !
r-0.08302934894757831 "
r-0.1178949186731736 #
r0.02372605249345383 $
r-0.8531715515534879 %
r0.07484245440641726 &

#940000
r0.9361740958511819 !
r-0.08548548165889255 "
r-0.05516324115149886 #
r0.02394584867307235 $
r-0.8844544939041653 %
r0.07715312435512786 &

#950000
r0.9562474484535016 !
r-0.08800091163438245 "
r0.007789593144922837 #
r0.02399518069514249 $
r-0.9122017238508011 %
r0.07954377028826015 &

#960000
r0.9726057300093995 !
r-0.09055547322881062 "
r0.07071291703715479 #
r0.02387411397957874 $
r-0.9362999385011873 %
r0.08199489411458515 &

#970000
r0.9851881954195681 !
r-0.09312836660778821 "
r0.1333561388662189 #
r0.02358538769633284 $
r-0.9566501605504999 %
r0.08448601326178790 &

#980000
r0.9939489180996046 !
r-0.09569848049404948 "
r0.1954697910224454 #
r0.02313437667216811 $
r-0.9731681836373615 %
r0.08699598182688693 &

#990000
r0.9988569050714423 !
r-0.09824472015236199 "
r0.2568065733161430 #
r0.02252901157811655 $
r-0.9857849665666932 %
r0.08950332333149466 &

#1000000
r0.9998961505370312 !
r-0.1007463355017420 "
r0.3171223850657941 #
r0.02177965852755279 $
r-0.9944469731892626 %
r0.09198656988585900 &

#1010000
r0.9970656296797229 !
r-0.1031832442317981 "
r0.3761773399189918 #
r0.02089895988201408 $
r-0.9991164547167511 %
r0.09442460241455213 &

#1020000
r0.9903792347262447 !
r-0.1055363448707578 "
r0.4337367576523048 #
r0.01990163870399349 $
r-0.9997716713155631 %
r0.09679698653071209 &

#1030000
r0.9798656555138819 !
r-0.1077878149052102 "
r0.4895721275125626 #
r0.01880426990065991 $
r-0.9964070499686335 %
r0.09908429866860459 &

#1040000
r0.9655682069432929 !
r-0.1099213892834854 "
r0.5434620380543735 #
r0.01762502165811515 $
r-0.9890332758256412 %
r0.1012684371980265 &

#1050000
r0.9475446057596093 !
r-0.1119226149420603 "
r0.5951930688854378 #
r0.01638337126159157 $
r-0.9776773145788277 %
r0.1033329134489782 &

#1060000
r0.9258666990980360 !
r-0.1137790773722253 "
r0.6445606402388261 #
r0.01509979982333714 $
r-0.9623823638015944 %
r0.1052631178694070 &

#1070000
r0.9006201471621901 !
r-0.1154805956859588 "
r0.6913698168350209 #
r0.01379547078871525 $
r-0.9432077316646889 %
r0.1070465569189860 &

#1080000
r0.8719040622831143 !
r-0.1170193831379032 "
r0.7354360630603149 #
r0.01249189735583870 $
r-0.9202286419917125 %
r0.1086730567621545 &

#1090000
r0.8398306064450305 !
r-0.1183901706059174 "
r0.7765859470561417 #
r0.01121060412028542 $
r-0.8935359652208236 %
r0.1101349303564048 &

#1100000
r0.8045245491725578 !
r-0.1195902911165270 "
r0.8146577918703103 #
r0.009972788341470707 $
r-0.8632358754895149 %
r0.1114271051276724 &

#1110000
r0.7661227874660927 !
r-0.1206197241137607 "
r0.8495022723510613 #
r0.008798986220414048 $
r-0.8294494347389711 %
r0.1125472090727302 &

#1120000
r0.7247738292605368 !
r-0.1214810988000887 "
r0.8809829569548759 #
r0.007708749481202965 $
r-0.7923121054272049 %
r0.1134956138164836 &

#1130000
r0.6806372416805999 !
r-0.1221796565160149 "
r0.9089767940773897 #
r0.006720337363523678 $
r-0.7519731941285903 %
r0.1142754338668237 &

#1140000
r0.6338830651858377 !
r-0.1227231727599973 "
r0.9333745428942364 #
r0.005850428865977351 $
r-0.7085952289641064 %
r0.1148924820374471 &

#1150000
r0.5846911945519038 !
r-0.1231218400726716 "
r0.9540811490082004 #
r0.005113859735791365 $
r-0.6623532744346673 %
r0.1153551817357925 &

#1160000
r0.5332507275310704 !
r-0.1233881136091874 "
r0.9710160654366198 #
r0.004523388287473814 $
r-0.6134341878034971 %
r0.1156744375251522 &

#1170000
r0.4797592819830775 !
r-0.1235365217917753 "
r0.9841135196371013 #
r0.004089493659443618 $
r-0.5620358216785527 %
r0.1158634660538070 &

#1180000
r0.4244222822729601 !
r-0.1235834449631085 "
r0.9933227273617761 #
r0.003820209592921581 $
r-0.5083661778706139 %
r0.1159375900872968 &

#1190000
r0.3674522157994115 !
r-0.1235468654420985 "
r0.9986080541546242 #
r0.003720996251075719 $
r-0.4526425179376479 %
r0.1159139989714743 &

#1200000
r0.3090678606469986 !
r-0.1234460928108651 "
r0.9999491252694336 #
r0.003794651998477820 $
r-0.3950904360651161 %
r0.1158114793839967 &

#1210000
r0.2494934855469094 !
r-0.1233014686291160 "
r0.9973408846965406 #
r0.004041266441236477 $
r-0.3359429000719685 %
r0.1156501206922357 &

#1220000
r0.1889580235805068 !
r-0.1231340550754080 "
r0.9907936038552559 #
r0.004458215396408545 $
r-0.2754392663732654 %
r0.1154509996197855 &

#1230000
r0.1276942213617789 !
r-0.1229653122501033 "
r0.9803328403479262 #
r0.005040197824776050 $
r-0.2138242746759857 %
r0.1152358492271676 &

#1240000
r0.06593776578083818 !
r-0.1228167690396422 "
r0.9659993469939904 #
r0.005779314132647585 $
r-0.1513470280410176 %
r0.1150267174320727 &

#1250000
r0.003926390770872843 !
r-0.1227096925343545 "
r0.9478489311817923 #
r0.006665184634280406 $
r-0.08825996372049230 %
r0.1148456204293270 &

#1260000
r-0.05810103303614181 !
r-0.1226647610117165 "
r0.9259522644059690 #
r0.007685106374499219 $
r-0.02481781988709466 %
r0.1147141964210589 &

#1270000
r-0.1199054224868841 !
r-0.1227017454439139 "
r0.9003946417121850 #
r0.008824245948178865 $
r0.03872339697608385 %
r0.1146533650349877 &

#1280000
r-0.1812484162302204 !
r-0.1228392043638669 "
r0.8712756906611744 #
r0.01006586542594116 $
r0.1021074396454420 %
r0.1146829976962680 &

#1290000
r-0.2418933151084276 !
r-0.1230941967293913 "
r0.8387090293615252 #
r0.01139157800962085 $
r0.1650788387209334 %
r0.1148216040297818 &

#1300000
r-0.3016060241778964 !
r-0.1234820171636243 "
r0.8028218731146971 #
r0.01278162960221120 $
r0.2273839086423718 %
r0.1150860391098392 &

#1310000
r-0.3601559916059959 !
r-0.1240159576246678 "
r0.7637545892737441 #
r0.01421520209008504 $
r0.2887717380336477 %
r0.1154912360481745 &

#1320000
r-0.4173171394324831 !
r-0.1247070991728179 "
r0.7216602000440380 #
r0.01567073380487129 $
r0.3489951616474826 %
r0.1160499680245589 &

#1330000
r-0.4728687809930937 !
r-0.1255641370646413 "
r0.6767038331524816 #
r0.01712625236264045 $
r0.4078117115461596 %
r0.1167726434232431 &

#1340000
r-0.5265965196883602 !
r-0.1265932419151632 "
r0.6290621205810873 #
r0.01855971487282420 $
r0.4649845454708335 %
r0.1176671372489182 &

#1350000
r-0.5782931237490043 !
r-0.1277979591388013 "
r0.5789225458985010 #
r0.01994935037197407 $
r0.5202833506139051 %
r0.1187386614641881 &

#1360000
r-0.6277593717043609 !
r-0.1291791483133689 "
r0.5264827411236492 #
r0.02127399927100539 $
r0.5734852212085253 %
r0.1199896763230578 &

#1370000
r-0.6748048634037829 !
r-0.1307349635170101 "
r0.4719497345111610 #
r0.02251344461138856 $
r0.6243755084820088 %
r0.1214198441781333 &

#1380000
r-0.7192487916715433 !
r-0.1324608750734454 "
r0.4155391511482784 #
r0.02364873000760495 $
r0.6727486415841115 %
r0.1230260266197630 &

#1390000
r-0.7609206699894084 !
r-0.1343497325150209 "
r0.3574743687853867 #
r0.02466245931106065 $
r0.7184089180977842 %
r0.1248023251701049 &

#1400000
r-0.7996610119913077 !
r-0.1363918679448239 "
r0.2979856318731109 #
r0.02553907326460256 $
r0.7611712626729416 %
r0.1267401651112436 &

#1410000
r-0.8353219590123283 !
r-0.1385752383579251 "
r0.2373091273331226 #
r0.02626509872578702 $
r0.8008619521994299 %
r0.1288284213815270 &

#1420000
r-0.8677678524486955 !
r-0.1408856048772111 "
r0.1756860261315139 #
r0.02682936641887314 $
r0.8373193057625331 %
r0.1310535848361565 &

#1430000
r-0.8968757482435272 !
r-0.1433067462809005 "
r0.1133614952369948 #
r0.02722319362657756 $
r0.8703943374139518 %
r0.1333999665450623 &

#1440000
r-0.9225358714010244 !
r-0.1458207036561881 "
r0.05058368501560711 #
r0.02744052874793556 $
r0.8999513695559280 %
r0.1358499372019358 &

#1450000
r-0.9446520090343463 !
r-0.1484080525157379 "
r-0.01239730247543456 #
r0.02747805522169564 $
r0.9258686044901007 %
r0.1383841981520006 &

#1460000
r-0.9631418410545698 !
r-0.1510481982696168 "
r-0.07533045849283444 #
r0.02733525293759781 $
r0.9480386514406295 %
r0.1409820800219306 &

#1470000
r-0.9779372081947617 !
r-0.1537196905627385 "
r-0.1379649198528192 #
r0.02701441592131523 $
r0.9663690061383733 %
r0.1436218644625582 &

#1480000
r-0.9889843176199954 !
r-0.1564005516740223 "
r-0.2000510221938176 #
r0.02652062577216518 $
r0.9807824798645648 %
r0.1462811241028270 &

#1490000
r-0.9962438868880217 !
r-0.1590686139342945 "
r-0.2613413479653033 #
r0.02586168104422020 $
r0.9912175747127221 %
r0.1489370754705827 &

#1500000
r-0.9996912274847473 !
r-0.1617018609601919 "
r-0.3215917628848278 #
r0.02504798347862418 $
r0.9976288017496602 %
r0.1515669393704061 &

#1510000
r-0.9993162695542376 !
r-0.1642787674243402 "
r-0.3805624347385607 #
r0.02409238270463939 $
r0.9999869387516006 %
r0.1541483030279442 &

#1520000
r-0.9951235297674900 !
r-0.1667786320897360 "
r-0.4380188286308223 #
r0.02300998171588377 $
r0.9982792242686239 %
r0.1566594782200554 &

#1530000
r-0.9871320245231128 !
r-0.1691818989288604 "
r-0.4937326731087625 #
r0.02181790608315753 $
r0.9925094849364073 %
r0.1590798496150301 &

#1540000
r-0.9753751308443359 !
r-0.1714704613243212 "
r-0.5474828919902682 #
r0.02053504047348430 $
r0.9826981932117663 %
r0.1613902076498908 &

#1550000
r-0.9599003974312100 !
r-0.1736279446049163 "
r-0.5990564971944193 #
r0.01918173659463130 $
r0.9688824530581808 %
r0.1635730604730975 &

#1560000
r-0.9407693083477781 !
r-0.1756399625045825 "
r-0.6482494384006018 #
r0.01777949716473156 $
r0.9511159115461483 %
r0.1656129197795545 &

#1570000
r-0.9180570017772511 !
r-0.1774943435360001 "
r-0.6948674059291123 #
r0.01635064090849111 $
r0.9294685948545021 %
r0.1674965557571318 &

#1580000
r-0.8918519461718369 !
r-0.1791813237386493 "
r-0.7387265838262933 #
r0.01491795389733334 $
r0.9040266677532538 %
r0.1692132168442639 &

#1590000
r-0.8622555759677969 !
r-0.1806937027847491 "
r-0.7796543507339414 #
r0.01350433277512848 $
r0.8748921163036805 %
r0.1707548105587557 &

#1600000
r-0.8293818888420756 !
r-0.1820269609967416 "
r-0.8174899267092720 #
r0.01213242554032767 $
r0.8421823542124436 %
r0.1721160422889008 &

#1610000
r-0.7933570062670205 !
r-0.1831793354371008 "
r-0.8520849647220904 #
r0.01082427558789477 $
r0.8060297540066408 %
r0.1732945096278515 &

#1620000
r-0.7543186988875782 !
r-0.1841518538650434 "
r-0.8833040860755107 #
r0.009600974650989393 $
r0.7665811049376403 %
r0.1742907505678478 &

#1630000
r-0.7124158780143995 !
r-0.1849483260047464 "
r-0.9110253594628570 #
r0.008482330125451826 $
r0.7239970002543533 %
r0.1751082446383000 &

#1640000
r-0.6678080543096321 !
r-0.1855752922254152 "
r-0.9351407237758599 #
r0.007486552014143757 $
r0.6784511571922627 %
r0.1757533668559505 &

#1650000
r-0.6206647645523260 !
r-0.1860419303846251 "
r-0.9555563551101265 #
r0.006629964399092036 $
r0.6301296736846710 %
r0.1762352951412756 &

#1660000
r-0.5711649672185933 !
r-0.1863599222227455 "
r-0.9721929786681822 #
r0.005926745944530574 $
r0.5792302264002425 %
r0.1765658726278407 &

#1670000
r-0.5194964075076309 !
r-0.1865432813084038 "
r-0.9849861264361368 #
r0.005388703461812180 $
r0.5259612152309528 %
r0.1767594270359910 &

#1680000
r-0.4658549523963876 !
r-0.1866081451139296 "
r-0.9938863416081966 #
r0.005025082037077914 $
r0.4705408597845017 %
r0.1768325499853834 &

#1690000
r-0.4104438963186138 !
r-0.1865725343373653 "
r-0.9988593307577135 #
r0.004842414644392993 $
r0.4131962537655230 %
r0.1768038397700639 &

#1700000
r-0.3534732381417207 !
r-0.1864560830765905 "
r-0.9998860647107174 #
r0.004844413550945246 $
r0.3541623833543453 %
r0.1766936117041776 &

#1710000
r-0.2951589302580953 !
r-0.1862797438949010 "
r-0.9969628289769046 #
r0.005031905177066963 $
r0.2936811158078623 %
r0.1765235806568148 &

#1720000
r-0.2357221008146597 !
r-0.1860654721904861 "
r-0.9901012244448197 #
r0.005402809412341604 $
r0.2320001645151764 %
r0.1763165208236402 &

#1730000
r-0.1753882503713463 !
r-0.1858358945900423 "
r-0.9793281188650864 #
r0.005952163719627254 $
r0.1693720366453238 %
r0.1760959081254551 &

#1740000
r-0.1143864245993359 !
r-0.1856139663255911 "
r-0.9646855494418231 #
r0.006672191690753317 $
r0.1060529693333778 %
r0.1758855508762270 &

#1750000
r-0.05294836499461888 !
r-0.1854226227206953 "
r-0.9462305766422764 #
r0.007552415059676802 $
r0.04230186007496607 %
r0.1757092145237533 &

#1760000
r0.008692360018852490 !
r-0.1852844300058587 "
r-0.9240350891328675 #
r0.008579807539195627 $
r-0.02162080334902899 %
r0.1755902463350446 &

#1770000
r0.07030124080160140 !
r-0.1852212407019992 "
r-0.8981855595705818 #
r0.009738988233503314 $
r-0.08545400850104543 %
r0.1755512058772959 &

#1780000
r0.1316437258028398 !
r-0.1852538587554002 "
r-0.8687827508354287 #
r0.01101245179796968 $
r-0.1489372749978197 %
r0.1756135070368094 &

#1790000
r0.1924861308092902 !
r-0.1854017194781992 "
r-0.8359413721947541 #
r0.01238083197607070 $
r-0.2118116983016536 %
r0.1757970771263926 &

#1800000
r0.2525965540880892 !
r-0.1856825891468055 "
r-0.7997896848539646 #
r0.01382319464743636 $
r-0.2738209770642213 %
r0.1761200383613778 &

#1810000
r0.3117457930041309 !
r-0.1861122888389790 "
r-0.7604690563791829 #
r0.01531735607620754 $
r-0.3347124209580774 %
r0.1765984166409341 &

#1820000
r0.3697082573708503 !
r-0.1867044467517925 "
r-0.7181334635814218 #
r0.01684022166060989 $
r-0.3942379363664349 %
r0.1772458821606895 &

#1830000
r0.4262628745321347 !
r-0.1874702828412449 "
r-0.6729489436324885 #
r0.01836814015786124 $
r-0.4521549876952629 %
r0.1780735259110804 &

#1840000
r0.4811939809826991 !
r-0.1884184291646323 "
r-0.6250929934405860 #
r0.01987726809790579 $
r-0.5082275324108070 %
r0.1790896755897513 &

#1850000
r0.5342921952235080 !
r-0.1895547887944312 "
r-0.5747539176461115 #
r0.02134393890934340 $
r-0.5622269281804169 %
r0.1802997538823593 &

#1860000
r0.5853552665242714 !
r-0.1908824356137289 "
r-0.5221301260004507 #
r0.02274503116521277 $
r-0.6139328106975747 %
r0.1817061814510431 &

#1870000
r0.6341888943305144 !
r-0.1924015567052812 "
r-0.4674293813546241 #
r0.02405833031839756 $
r-0.6631339408992910 %
r0.1833083263205328 &

