Tests/AMS/OSC/v2/inv.vcd
$date
    Fri Oct 14 23:29:07 2011
$end

$version
                 SystemC AMS 1.0 --- 1.0Beta2 --- unknown release date
$end

$timescale
      1 fs
$end

$scope module SystemC_AMS $end

$var real 1 !  v0 $end
$var real 1 "  v1 $end
$var real 1 #  v2 $end
$var real 1 $  o11 $end
$var real 1 %  o12 $end
$var real 1 &  o21 $end
$var real 1 '  o22 $end

$upscope $end

$enddefinitions $end


#0
r0.000000000000000 !
r0.000000000000000 "
r0.000000000000000 #
r1.800000000000000 $
r0.02128645498982039 %
r0.000000000000000 &
r1.795790038517058 '

#1000
r0.002669712641089025 !
r0.1625190594199885 "
r0.08259438190081969 #
r1.800000000000000 $
r0.02128645498982039 %
r0.000000000000000 &
r1.795790038517058 '

#2000
r0.005573012495357175 !
r0.3169383995864313 "
r0.1612556979781094 #
r1.800000000000000 $
r0.02128645498982039 %
r0.000000000000000 &
r1.795790038517058 '

#3000
r0.008883630459256211 !
r0.4559673129984936 "
r0.2324254601076020 #
r1.800000000000000 $
r0.02128645498982039 %
r0.000000000000000 &
r1.795790038517058 '

#4000
r0.01249147588014086 !
r0.5811428530436874 "
r0.2968171496210567 #
r1.800000000000000 $
r0.02128645498982039 %
r0.000000000000000 &
r1.795790038517058 '

#5000
r0.01630437682719759 !
r0.6938482531742010 "
r0.3550762972468844 #
r1.800000000000000 $
r0.02128645498982039 %
r0.000000000000000 &
r1.795790038517058 '

#6000
r0.02024559845483803 !
r0.7953283515162811 "
r0.4077869545962119 #
r1.800000000000000 $
r0.02128645498982039 %
r0.000000000000000 &
r1.795790038517058 '

#7000
r0.02425167852698495 !
r0.8867034656546428 "
r0.4554775493169365 #
r1.800000000000000 $
r0.02128645498982039 %
r0.000000000000000 &
r1.795790038517058 '

#8000
r0.02827054147036276 !
r0.9689818736203729 "
r0.4986261826140587 #
r1.800000000000000 $
r0.02128645498982039 %
r0.000000000000000 &
r1.795790038517058 '

#9000
r0.03225985688267359 !
r1.043071041372403 "
r0.5376654222442675 #
r1.800000000000000 $
r0.02128645498982039 %
r0.000000000000000 &
r1.795790038517058 '

#10000
r0.03618561245363569 !
r1.109787722914721 "
r0.5729866390348466 #
r1.800000000000000 $
r0.02128645498982039 %
r0.000000000000000 &
r1.795790038517058 '

#11000
r0.04002087482289685 !
r1.169867046473057 "
r0.6049439304007803 #
r1.800000000000000 $
r0.02128645498982039 %
r0.000000000000000 &
r1.795790038517058 '

#12000
r0.04374471505175454 !
r1.223970688721134 "
r0.6338576701935608 #
r1.800000000000000 $
r0.02128645498982039 %
r0.000000000000000 &
r1.795790038517058 '

#13000
r0.04734127817242285 !
r1.272694228767657 "
r0.6600177204691540 #
r1.800000000000000 $
r0.02128645498982039 %
r0.000000000000000 &
r1.795790038517058 '

#14000
r0.05079897874101598 !
r1.316573764374223 "
r0.6836863373733030 #
r1.800000000000000 $
r0.02128645498982039 %
r0.000000000000000 &
r1.795790038517058 '

#15000
r0.1384055551187234 !
r1.356296286566662 "
r0.7473508834751484 #
r0.000000000000000 $
r1.795790038517058 %
r0.000000000000000 &
r1.795790038517058 '

#16000
r0.3017421663722235 !
r1.392093105766165 "
r0.8469175937233148 #
r0.002661720174163052 $
r1.795689960199604 %
r0.1625270518877405 &
r1.783935701628720 '

#17000
r0.4489322065432201 !
r1.422974693200304 "
r0.9359534030740924 #
r0.005557444226808899 $
r1.795578642546867 %
r0.3169539678565922 &
r1.751970437473869 '

#18000
r0.5815567586761454 !
r1.446906927637551 "
r1.014231792445259 #
r0.008861276276291376 $
r1.795448465003549 %
r0.4559896671837827 &
r1.688508791973473 '

#19000
r0.7010277851911940 !
r1.461235131206893 "
r1.081131404142474 #
r0.01246304331276676 $
r1.795302608857147 %
r0.5811712856140296 &
r1.587451359553474 '

#20000
r0.8086043799584338 !
r1.463441771259929 "
r1.136023018808031 #
r0.01627049963515562 $
r1.795143843591684 %
r0.6938821303697936 &
r1.452075974224468 '

#21000
r0.9054105898167463 !
r1.451951935573346 "
r1.178681203760986 #
r0.02020684431922390 $
r1.794974625194977 %
r0.7953671056559731 &
r1.293541740210745 '

#22000
r0.9924543834544577 !
r1.426562495211811 "
r1.209508378857716 #
r0.02420855593990596 $
r1.794797160671941 %
r0.8867465882462765 &
r1.126152967414302 '

#23000
r1.070645602077103 !
r1.388388146939027 "
r1.229516813032225 #
r0.02822350590624839 $
r1.794613449725056 %
r0.9690289091894735 &
r0.9628244812871019 '

#24000
r1.140811074732417 !
r1.339481192882130 "
r1.240146071799970 #
r0.03220931632613743 $
r1.794425311195553 %
r1.043121581934316 &
r0.8126331711148922 '

#25000
r1.203706186355424 !
r1.282355077774299 "
r1.243030569913333 #
r0.03613193235097757 $
r1.794234399578966 %
r1.109841403023109 &
r0.6804406050157132 '

#26000
r1.260023193458739 !
r1.219576401284323 "
r1.239799735381544 #
r0.03996438251733906 $
r1.794042215344261 %
r1.169923538784664 &
r0.5677102760532593 '

#27000
r1.310397098700523 !
r1.153492054986452 "
r1.231944515246262 #
r0.04368570375624036 $
r1.793850111658866 %
r1.224029700022987 &
r0.4736773489926805 '

#28000
r1.355409962786205 !
r1.086088452592910 "
r1.220749146652101 #
r0.04728001052819317 $
r1.793659299305799 %
r1.272755496418487 &
r0.3963860675009359 '

#29000
r1.395594355816624 !
r1.018949128587555 "
r1.207271681838506 #
r0.05073569000515275 $
r1.793470850981476 %
r1.316637053116924 &
r0.3334270867983165 '

#30000
r1.431122397736880 !
r0.9532604259267543 "
r1.192191352222250 #
r0.1383446605858877 $
r1.786676055041582 %
r1.356357181106971 &
r0.2821391244513079 '

#31000
r1.461046452446181 !
r0.8898718793800895 "
r1.175459107140180 #
r0.3016876488294884 $
r1.756571492848375 %
r1.392147623317369 &
r0.2406246700983662 '

#32000
r1.483234293122020 !
r0.8294256178214535 "
r1.156329897655242 #
r0.4488835044235670 $
r1.692859123588441 %
r1.423023395329317 &
r0.2083545619161810 '

#33000
r1.494879482204341 !
r0.7724734676239172 "
r1.133676418230309 #
r0.5815134911727685 $
r1.587106587411543 %
r1.446950195151071 &
r0.1855533884698795 '

#34000
r1.493188290530344 !
r0.7195371711834752 "
r1.106362675538776 #
r0.7009897748292989 $
r1.442066267709840 %
r1.461273141579599 &
r0.1728024280795273 '

#35000
r1.476390715243213 !
r0.6711412123168086 "
r1.073765910091715 #
r0.8085716380945488 $
r1.270616817757873 %
r1.463474513135175 &
r0.1709012144673737 '

#36000
r1.444322226052225 !
r0.6278458794326920 "
r1.036084000938259 #
r0.9053832627553519 $
r1.089904955887447 %
r1.451979262646527 &
r0.1810006245423714 '

#37000
r1.398385465993717 !
r0.5902959109273115 "
r0.9943406387434824 #
r0.9924326780549173 $
r0.9153686817344125 %
r1.426584200623447 &
r0.2048406692803104 '

#38000
r1.341078018579719 !
r0.5592747587889664 "
r0.9501763411755259 #
r1.070629714956008 $
r0.7574937133754208 %
r1.388404034072418 &
r0.2447591183086481 '

#39000
r1.275393947730699 !
r0.5357301993533113 "
r0.9055620282639038 #
r1.140801141232710 $
r0.6214041294856432 %
r1.339491126394238 &
r0.3032473761566504 '

#40000
r1.204322355130073 !
r0.5207310715212115 "
r0.8625266701993086 #
r1.203702253917069 $
r0.5080581720938472 %
r1.282359010225085 &
r0.3820535050347245 '

#41000
r1.130528531964849 !
r0.5153328440189988 "
r0.8229306468453914 #
r1.260025215804546 $
r0.4158521524591119 %
r1.219574378950913 &
r0.4811099765623493 '

#42000
r1.056206398685314 !
r0.5203688452610216 "
r0.7882875825587886 #
r1.310404943958868 $
r0.3419699762571956 %
r1.153484209740427 &
r0.5977818900227706 '

#43000
r0.9830514358961563 !
r0.5362271204425547 "
r0.7596392401873937 #
r1.355423428867818 $
r0.2832818235851061 %
r1.086074986523504 &
r0.7268863737566287 '

#44000
r0.9123016716112806 !
r0.5626921582255302 "
r0.7374968780435617 #
r1.395613188084022 $
r0.2368403040472113 %
r1.018930296332230 &
r0.8615693697305928 '

#45000
r0.8448224097656084 !
r0.5989107975122513 "
r0.7218665675456016 #
r1.431146290841431 $
r0.2004006821559763 %
r0.9532365328341248 &
r0.9947042446070720 '

#46000
r0.7812336639550507 !
r0.6434891763600301 "
r0.7123613845394713 #
r1.461075011180711 $
r0.1729743032037179 %
r0.8898433206573135 &
r1.120169492725410 '

#47000
r0.7220359895932040 !
r0.6946734804954394 "
r0.7083546996265869 #
r1.483266983561566 $
r0.1544950934239386 %
r0.8293929273934700 &
r1.233526030742570 '

#48000
r0.6676892389917332 !
r0.7505527924342831 "
r0.7091209802569592 #
r1.494915602510739 $
r0.1454070768941983 %
r0.7724373473288566 &
r1.332174541390581 '

#49000
r0.6186664219513562 !
r0.8092420205013846 "
r0.7139541855286613 #
r1.493226973091843 $
r0.1466989087620582 %
r0.7194984886330396 &
r1.415198181612448 '

#50000
r0.5755102461559809 !
r0.8690216902703630 "
r0.7222659320998756 #
r1.476430977723728 $
r0.1600227582960295 %
r0.6711009498470312 &
r1.482990424058921 '

#51000
r0.5389012828677122 !
r0.9284238501232873 "
r0.7336625298123733 #
r1.444363049874736 $
r0.1879276488582058 %
r0.6278050556205415 &
r1.536780184073501 '

#52000
r0.5097278357642150 !
r0.9862649844478348 "
r0.7479963727062064 #
r1.398425870476442 $
r0.2337992317567812 %
r0.5902555064545298 &
r1.578164647769918 '

#53000
r0.4891132288762490 !
r1.041635818062074 "
r0.7653744852004370 #
r1.341117108747459 $
r0.3011692773797038 %
r0.5592356686307277 &
r1.608733259921817 '

#54000
r0.4783431705816780 !
r1.093862088971824 "
r0.7861025904716216 #
r1.275430930922645 $
r0.3923624901706855 %
r0.5356932161704203 &
r1.629813546857713 '

#55000
r0.4786615901580143 !
r1.142449191435886 "
r0.8105553502691827 #
r1.204356534698566 $
r0.5069331100972291 %
r0.5206968919613437 &
r1.642317350817239 '

#56000
r0.4909678268486432 !
r1.187019211474157 "
r0.8389934772117261 #
r1.130559291753360 $
r0.6407288439530777 %
r0.5153020842387162 &
r1.646643666144890 '

#57000
r0.5155170497088220 !
r1.227244682793385 "
r0.8713808226820626 #
r1.056233190566926 $
r0.7862654822868291 %
r0.5203420533872917 &
r1.642604679155758 '

#58000
r0.5517458796778749 !
r1.262781880408851 "
r0.9072638346801716 #
r0.9830737771157271 $
r0.9343654271465730 %
r0.5362047792305802 &
r1.629374473501651 '

#59000
r0.5982936721665617 !
r1.293208618207675 "
r0.9457510978995636 #
r0.9123191520906374 $
r1.076278259918587 %
r0.5626746777535484 &
r1.605502514200814 '

#60000
r0.6532001293712333 !
r1.317976775739905 "
r0.9855884032761494 #
r0.8448347053498304 $
r1.205322269482603 %
r0.5988985019352480 &
r1.569068465962184 '

#61000
r0.7141914152309418 !
r1.336395875427304 "
r1.025293594064443 #
r0.7812405511829922 $
r1.317524170184839 %
r0.6434822891392121 &
r1.518057021218896 '

#62000
r0.7789588511850601 !
r1.347666616104747 "
r1.063312680479270 #
r0.7220373577222007 $
r1.411423165599104 %
r0.6946721123735263 &
r1.450971954491096 '

#63000
r0.8453723191357611 !
r1.350976185258478 "
r1.098174197288410 #
r0.6676850958176066 $
r1.487471181322675 %
r0.7505569356155009 &
r1.367568434003380 '

#64000
r0.9116101749784215 !
r1.345646763343142 "
r1.128628412729362 #
r0.6186568931749985 $
r1.547311003323658 %
r0.8092515492848819 &
r1.269423524909100 '

#65000
r0.9762111097767092 !
r1.331301584343152 "
r1.153756289372116 #
r0.5754955705873864 $
r1.593112125437263 %
r0.8690363658461802 &
r1.160038117589169 '

#66000
r1.038065881084450 !
r1.307996305119986 "
r1.173031034450666 #
r0.5388818067430178 $
r1.627063167301826 %
r0.9284433262553183 &
r1.044351334982681 '

#67000
r1.096370345108303 !
r1.276271364881041 "
r1.186320795678632 #
r0.5097040089105208 $
r1.651038316819643 %
r0.9862888113090089 &
r0.9278415764077135 '

#68000
r1.150558413436892 !
r1.237110876332224 "
r1.193834585192829 #
r0.4890856027506165 $
r1.666409171960224 %
r1.041663444195360 &
r0.8155735539933439 '

#69000
r1.200227553696501 !
r1.191827503613506 "
r1.196027468853630 #
r0.4783123946396889 $
r1.673943036578667 %
r1.093892864921674 &
r0.7115139592877923 '

#70000
r1.245062643899114 !
r1.141912717229508 "
r1.193487620889930 #
r0.4786284007820032 $
r1.673726803241663 %
r1.142482380820002 &
r0.6182527196215140 '

#71000
r1.284759138364767 !
r1.088892137923535 "
r1.186825578802873 #
r0.4909330242836068 $
r1.665083394523892 %
r1.187054014047583 &
r0.5370820470492229 '

#72000
r1.318945969645159 !
r1.034212732389117 "
r1.176579292188174 #
r0.5154814633315246 $
r1.646501259055382 %
r1.227280269179396 &
r0.4682918162693506 '

#73000
r1.347113922179039 !
r0.9791724144480730 "
r1.163143110156400 #
r0.5517103278823747 $
r1.615667274412586 %
r1.262817432213424 &
r0.4115374041988691 '

#74000
r1.368565948659098 !
r0.9248900876506855 "
r1.146727960818494 #
r0.5982589264239884 $
r1.569750321244808 %
r1.293243363959706 &
r0.3661813898527395 '

#75000
r1.382417285386445 !
r0.8723075934291101 "
r1.127362383039659 #
r0.6531668905438427 $
r1.506063059484599 %
r1.318010014577151 &
r0.3315630174185719 '

#76000
r1.387674725065021 !
r0.8222134988343093 "
r1.104944056702463 #
r0.7141603050130583 $
r1.423065431698559 %
r1.336426985655440 &
r0.3071885181297164 '

#77000
r1.383404548996819 !
r0.7752800870150585 "
r1.079342264038825 #
r0.7789304158021306 $
r1.321390958859950 %
r1.347695051498309 &
r0.2928562153336547 '

#78000
r1.368957836616633 !
r0.7321072447631798 "
r1.050532488163282 #
r0.8453470389479457 $
r1.204376917381404 %
r1.351001465457275 &
r0.2887345544898415 '

#79000
r1.344182197963844 !
r0.6932685794488672 "
r1.018725337770089 #
r0.9115884731546463 $
r1.077717016252475 %
r1.345668465178204 &
r0.2954013120338262 '

#80000
r1.309541722168663 !
r0.6593549634738062 "
r0.9844482935988200 #
r0.9761933552587496 $
r0.9483167450185279 %
r1.331319338872649 &
r0.3138305743905666 '

#81000
r1.266102745433509 !
r0.6310084179417688 "
r0.9485555342598621 #
r1.038052384569113 $
r0.8228614234842146 %
r1.308009801647053 &
r0.3452886801229347 '

#82000
r1.215399083371942 !
r0.6089357105836624 "
r0.9121673513694351 #
r1.096361350063245 $
r0.7066785053436274 %
r1.276280359937961 &
r0.3910899786053521 '

#83000
r1.159231478187805 !
r0.5938889479691952 "
r0.8765601692504921 #
r1.150554085819716 $
r0.6032077260854506 %
r1.237115203961338 &
r0.4521916720042716 '

#84000
r1.099464124168453 !
r0.5866036774414386 "
r0.8430338586532532 #
r1.200227973704985 $
r0.5140523813997352 %
r1.191827083616982 &
r0.5286839745418227 '

#85000
r1.037863055506350 !
r0.5876961991104284 "
r0.8127795866694099 #
r1.245067801401415 $
r0.4393902562484009 %
r1.141907559739142 &
r0.6193295207432018 '

#86000
r0.9759948775385929 !
r0.5975387842328111 "
r0.7867667915473626 #
r1.284768931720723 $
r0.3785049933141283 %
r1.088882344579447 &
r0.7213563051813565 '

#87000
r0.9151835846408568 !
r0.6161462154052333 "
r0.7656648617398021 #
r1.318960206312904 $
r0.3302767477546355 %
r1.034198495733137 &
r0.8306481965968265 '

#88000
r0.8565125875336397 !
r0.6431096987343997 "
r0.7498111056434645 #
r1.347132319260241 $
r0.2935614902931868 %
r0.9791540173785022 &
r0.9423153912753091 '

#89000
r0.8008567934508365 !
r0.6776008561811018 "
r0.7392287878545298 #
r1.368588132457882 $
r0.2674516437801185 %
r0.9248679038633687 &
r1.051458692732607 '

#90000
r0.7489319667438336 !
r0.7184452147501413 "
r0.7336885540625599 #
r1.382442790876680 $
r0.2514426420583261 %
r0.8722820879501491 &
r1.153872504538480 '

#91000
r0.7013525675668227 !
r0.7642432439854068 "
r0.7327978691362214 #
r1.387702998131857 $
r0.2455387222059817 %
r0.8221852257785225 &
r1.246491740087948 '

#92000
r0.6586927280538680 !
r0.8135068863255276 "
r0.7360997703847095 #
r1.383434955225314 $
r0.2503217400497426 %
r0.7752496807973561 &
r1.327519294835685 '

#93000
r0.6215463178010859 !
r0.8647823070336831 "
r0.7431642752591709 #
r1.368989679151478 $
r0.2669782764405098 %
r0.7320754022388397 &
r1.396289151804624 '

#94000
r0.5905797770580903 !
r0.9167404321694047 "
r0.7536600669307443 #
r1.344214743649863 $
r0.2972357843361754 %
r0.6932360337730351 &
r1.452977324320861 '

#95000
r0.5665654017984139 !
r0.9682291550714393 "
r0.7673972400650646 #
r1.309574231511520 $
r0.3431187822033224 %
r0.6593224541407937 &
r1.498269843312759 '

#96000
r0.5503759282499104 !
r1.018290310537890 "
r0.7843330801772463 #
r1.266134500154626 $
r0.4064444483292445 %
r0.6309766632301369 &
r1.533061375707549 '

#97000
r0.5429203059584251 !
r1.066149166430236 "
r0.8045346959675962 #
r1.215429406545143 $
r0.4880773142254287 %
r0.6089053874195838 &
r1.558217260840152 '

#98000
r0.5450130950928067 !
r1.111185018744769 "
r0.8280990155138371 #
r1.159259745318699 $
r0.5871444253785982 %
r0.5938606808470671 &
r1.574401431107791 '

#99000
r0.5571970311550904 !
r1.152890175926599 "
r0.8550435607886668 #
r1.099489767195005 $
r0.7005635626461357 %
r0.5865780344233175 &
r1.581957783522734 '

#100000
r0.5795680359904916 !
r1.190822870406423 "
r0.8851954089386873 #
r1.037885563853233 $
r0.8231983018724633 %
r0.5876736907716724 &
r1.580832469167695 '

#101000
r0.6116639005110827 !
r1.224558722223627 "
r0.9181112654617917 #
r0.9760138003471920 $
r0.9486806037933085 %
r0.5975198614320797 &
r1.570536499111831 '

#102000
r0.6524594856792701 !
r1.253646019256753 "
r0.9530527048153767 #
r0.9151985365131469 $
r1.070601431585393 %
r0.6161312635405999 &
r1.550167255943903 '

#103000
r0.7004709144916593 !
r1.277572254285001 "
r0.9890215349372536 #
r0.8565232576818287 $
r1.183608331688634 %
r0.6430990285937088 &
r1.518524950754939 '

#104000
r0.7539324244476867 !
r1.295751990312133 "
r1.024842156137802 #
r0.8008629562513961 $
r1.284058506900059 %
r0.6775946933879344 &
r1.474360734022075 '

#105000
r0.8109921442819239 !
r1.307546829555621 "
r1.059269433955300 #
r0.7489334910851017 $
r1.370135102559923 %
r0.7184436904162101 &
r1.416760247538748 '

#106000
r0.8698801809787348 !
r1.312324008453948 "
r1.091102040161239 #
r0.7013494230366658 $
r1.441555202697547 %
r0.7642463885228917 &
r1.345596943908465 '

#107000
r0.9290233041745378 !
r1.309549465454320 "
r1.119286328850113 #
r0.6586849873496349 $
r1.499083027166707 %
r0.8135146270371217 &
r1.261913411344093 '

#108000
r0.9871018052160524 !
r1.298896940417074 "
r1.142999315666597 #
r0.6215341560053401 $
r1.544030164516607 %
r0.8647944688368606 &
r1.168064454970293 '

#109000
r1.043057922451152 !
r1.280344001012784 "
r1.161700903646923 #
r0.5905634690291029 $
r1.577844913697410 %
r0.9167567402059286 &
r1.067524715602875 '

#110000
r1.096070364612958 !
r1.254226182183561 "
r1.175148214640849 #
r0.5665453186145872 $
r1.601819491659782 %
r0.9682492382629400 &
r0.9644018393467320 '

#111000
r1.145508493059352 !
r1.221233141989634 "
r1.183370758355955 #
r0.5503525325347177 $
r1.616898660566001 %
r1.018313706260926 &
r0.8628199789329070 '

#112000
r1.190875954131699 !
r1.182349703363529 "
r1.186612769416975 #
r0.5428941445194242 $
r1.623555991005895 %
r1.066175327877283 &
r0.7663731346885800 '

#113000
r1.231749611499951 !
r1.138760466637237 "
r1.185254979805845 #
r0.5449847865007645 $
r1.621708042307416 %
r1.111213327345092 &
r0.6777870042120182 '

#114000
r1.267717319261470 !
r1.091743127966949 "
r1.179730164627701 #
r0.5571672465021270 $
r1.610657655541798 %
r1.152919960588113 &
r0.5988252288015359 '

#115000
r1.298318634353311 !
r1.042572579098191 "
r1.170445548203474 #
r0.5795374732531967 $
r1.589091981875400 %
r1.190853433152570 &
r0.5303921424463984 '

#116000
r1.322996509769914 !
r0.9924494167271680 "
r1.157722905362396 #
r0.6116332557745876 $
r1.555199455341345 %
r1.224589366969303 &
r0.4727478444996471 '

#117000
r1.341074203788198 !
r0.9424574360269382 "
r1.141765762819280 #
r0.6524294263573566 $
r1.506987870997877 %
r1.253676078588198 &
r0.4257566848492770 '

#118000
r1.351776036868171 !
r0.8935480373179188 "
r1.122661980959946 #
r0.7004420594296147 $
r1.442843734425392 %
r1.277601109356936 &
r0.3891161338110302 '

#119000
r1.354306642869312 !
r0.8465460509194692 "
r1.100426291873076 #
r0.7539053334745176 $
r1.362248338056347 %
r1.295779081295551 &
r0.3625409759847433 '

#120000
r1.347986272704907 !
r0.8021706369669056 "
r1.075078401081986 #
r0.8109673165529565 $
r1.266406730355336 %
r1.307571657295181 &
r0.3458978984966802 '

#121000
r1.332413595318829 !
r0.7610654418874119 "
r1.046739466266148 #
r0.8698580587928164 $
r1.158479180729486 %
r1.312346130650777 &
r0.3392947092190216 '

#122000
r1.307606957360845 !
r0.7238329102292034 "
r1.015719883009030 #
r0.9290042778720702 $
r1.043234915142028 %
r1.309568491767981 &
r0.3431267280210675 '

#123000
r1.274075882852294 !
r0.6910676768116252 "
r0.9825717307033736 #
r0.9870862154650072 $
r0.9262231308285513 %
r1.298912530179549 &
r0.3580725147361645 '

#124000
r1.232799288994797 !
r0.6633829248137562 "
r0.9480910594997238 #
r1.043046058153032 $
r0.8127854314259814 %
r1.280355865322520 &
r0.3850177986936348 '

#125000
r1.185121414081620 !
r0.6414219104815295 "
r0.9132716166179944 #
r1.096062456827955 $
r0.7072635150215326 %
r1.254234089980315 &
r0.4248810269479046 '

#126000
r1.132601654707203 !
r0.6258459619856920 "
r0.8792237643852593 #
r1.145504706832822 $
r0.6126027140121058 %
r1.221236928227998 &
r0.4783295458055999 '

#127000
r1.076860413427765 !
r0.6172923304300246 "
r0.8470763295750785 #
r1.190876380450170 $
r0.5303518545361643 %
r1.182349277056923 &
r0.5454188067686782 '

#128000
r1.019452776902022 !
r0.6163019898480732 "
r0.8178773424811806 #
r1.231754260963121 $
r0.4609312757591802 %
r1.138755817185920 &
r0.6252460480504337 '

#129000
r0.9617852176058438 !
r0.6232281597192225 "
r0.7925066490372009 #
r1.267726117976933 $
r0.4040134247927648 %
r1.091734329263283 &
r0.7157496230871915 '

#130000
r0.9050761084530101 !
r0.6381468323908188 "
r0.7716114318413430 #
r1.298331421661925 $
r0.3588986892681444 %
r1.042559791801280 &
r0.8137658670487982 '

#131000
r0.8503524000840526 !
r0.6607949388968724 "
r0.7555736317117812 #
r1.323013037130355 $
r0.3248254489162652 %
r0.9924328893783044 &
r0.9153682526174799 '

#132000
r0.7984720341939854 !
r0.6905561281049223 "
r0.7445140439237518 #
r1.341094134632294 $
r0.3011985755444226 %
r0.9424375051942591 &
r1.016399705575088 '

#133000
r0.7501624818259756 !
r0.7265000798315011 "
r0.7383312439121762 #
r1.351798948273762 $
r0.2877461413519309 %
r0.8935251259235545 &
r1.113034303498463 '

#134000
r0.7060680130829070 !
r0.7674652964579007 "
r0.7367666179320731 #
r1.354332030904411 $
r0.2846212955798957 %
r0.8465206628953738 &
r1.202209103200119 '

#135000
r0.6668001635447290 !
r0.8121644984798143 "
r0.7394822940381572 #
r1.348013563492069 $
r0.2924575116251634 %
r0.8021433461904941 &
r1.281837125612768 '

#136000
r0.6329860093365404 !
r0.8592895291989522 "
r0.7461377319608599 #
r1.332442162731734 $
r0.3123626692110539 %
r0.7610368744849740 &
r1.350800439202511 '

#137000
r0.6053065325690983 !
r0.9075977855936475 "
r0.7564521212587668 #
r1.307636146068280 $
r0.3458081887511434 %
r0.7238037215319254 &
r1.408784167121657 '

#138000
r0.5845131497811610 !
r0.9559706715127505 "
r0.7702418721348623 #
r1.274105033267509 $
r0.3943535530376582 %
r0.6910385264062360 &
r1.456032308454557 '

#139000
r0.5714072844902188 !
r1.003442540320909 "
r0.7874248730343205 #
r1.232827759817747 $
r0.4591741919616890 %
r0.6633544540002876 &
r1.493093678591228 '

#140000
r0.5667706465669297 !
r1.049203902681321 "
r0.8079872342247636 #
r1.185148599061367 $
r0.5404514415936931 %
r0.6413947255109158 &
r1.520599566629475 '

#141000
r0.5712467437340779 !
r1.092585012004623 "
r0.8319158362735587 #
r1.132626992496235 $
r0.6368102304528246 %
r0.6258206242054520 &
r1.539089212540260 '

#142000
r0.5851953474939664 !
r1.133026140225641 "
r0.8591107009042686 #
r1.076883391836150 $
r0.7450655404117329 %
r0.6172693520301101 &
r1.548882916604321 '

#143000
r0.6085609807565991 !
r1.170040121765839 "
r0.8893005067961939 #
r1.019472934445464 $
r0.8604688513133580 %
r0.6162818323128098 &
r1.549997595476979 '

#144000
r0.6408004489691008 !
r1.203172137557468 "
r0.9219862471639725 #
r0.9618021454627006 $
r0.9774323251622562 %
r0.6232112318702907 &
r1.542104615316642 '

#145000
r0.6808970327847226 !
r1.231961915820016 "
r0.9564294264808981 #
r0.9050894549206713 $
r1.090480648704772 %
r0.6381334859308738 &
r1.524541206320952 '

#146000
r0.7274582804046832 !
r1.255914684715591 "
r0.9916864329758156 #
r0.8503618779608897 $
r1.195092194684809 %
r0.6607854610275908 &
r1.496398213832979 '

#147000
r0.7788669960574638 !
r1.274488720769066 "
r1.026677807079375 #
r0.7984774299930123 $
r1.288185129260464 %
r0.6905507323133404 &
r1.456708198504621 '

#148000
r0.8334437521477573 !
r1.287107700598578 "
r1.060275673359385 #
r0.7501636649497668 $
r1.368190961033752 %
r0.7264988967150930 &
r1.404737620067380 '

#149000
r0.8895853785435039 !
r1.293203260729542 "
r1.091394265066810 #
r0.7060649432224221 $
r1.434813798787632 %
r0.7674683663257532 &
r1.340341464209375 '

#150000
r0.9458596836690910 !
r1.292285960774702 "
r1.119072766268258 #
r0.6667928953316796 $
r1.488634858435482 %
r0.8121717667002585 &
r1.264284287831728 '

#151000
r1.001052753700371 !
r1.284032557786577 "
r1.142542598616344 #
r0.6329746941642779 $
r1.530700662990782 %
r0.8593008443786760 &
r1.178404510179434 '

#152000
r1.054175882288615 !
r1.268368591132422 "
r1.161272178646910 #
r0.6052914180102292 $
r1.562175859118744 %
r0.9076129001600809 &
r1.085532014365862 '

#153000
r1.104443442557910 !
r1.245523148435168 "
r1.174983236747377 #
r0.5844945769089255 $
r1.584086411454279 %
r0.9559892443926883 &
r0.9891591543048465 '

#154000
r1.151232565189596 !
r1.216039750029042 "
r1.183636098427514 #
r0.5713856827313644 $
r1.597143694373486 %
r1.003464142087638 &
r0.8929641542019543 '

#155000
r1.194032825286880 !
r1.180740720066769 "
r1.187386713307489 #
r0.5667465249081638 $
r1.601626679471242 %
r1.049228024348166 &
r0.8003359589606657 '

#156000
r1.232391411744238 !
r1.140655860835628 "
r1.186523576963755 #
r0.5712206768248239 $
r1.597304376223424 %
r1.092611078922196 &
r0.7140283715653570 '

#157000
r1.265858001631520 !
r1.096934087962947 "
r1.181395985727435 #
r0.5851679559586253 $
r1.583400041313864 %
r1.133053531769573 &
r0.6360029370656936 '

#158000
r1.293934736405697 !
r1.050757098674957 "
r1.172345858923034 #
r0.6085329068039952 $
r1.558627340358205 %
r1.170068195727336 &
r0.5674485392203908 '

#159000
r1.316040340845569 !
r1.003269068103321 "
r1.159654646491713 #
r0.6407723303892813 $
r1.521354673965218 %
r1.203200256146508 &
r0.5089221911914134 '

#160000
r1.331501894433335 !
r0.9555292998589567 "
r1.143515539970369 #
r0.6808694795453529 $
r1.469953476475942 %
r1.231989469068950 &
r0.4605459915283222 '

#161000
r1.339589124227229 !
r0.9084885848138060 "
r1.124038798318578 #
r0.7274318575894260 $
r1.403331287710723 %
r1.255941107540764 &
r0.4222084652876829 '

#162000
r1.339599348995091 !
r0.8629860811110805 "
r1.101292659988453 #
r0.7788422149763615 $
r1.321538280788193 %
r1.274513501860435 &
r0.3937395489345226 '

#163000
r1.330984473068379 !
r0.8197617892705835 "
r1.075373077400828 #
r0.8334210689556362 $
r1.226223832430382 %
r1.287130383801302 &
r0.3750466967312566 '

#164000
r1.313490458418998 !
r0.7794794046047074 "
r1.046484879187609 #
r0.8895651976548515 $
r1.120707553624023 %
r1.293223441629108 &
r0.3662100775060403 '

#165000
r1.287266934256437 !
r0.7427545665616950 "
r1.015010699658532 #
r0.9458423623608311 $
r1.009569964675380 %
r1.292303282094153 &
r0.3675365445543660 '

#166000
r1.252910365733121 !
r0.7101835352232678 "
r0.9815469014008497 #
r1.001038604715880 $
r0.8978905111703648 %
r1.284046706782494 &
r0.3795664041185409 '

#167000
r1.211427288890898 !
r0.6823667147179729 "
r0.9468969544595878 #
r1.054165172658979 $
r0.7904149096057335 %
r1.268379300773670 &
r0.4030181520171783 '

#168000
r1.164131850295578 !
r0.6599203867147015 "
r0.9120260729038361 #
r1.104436388578491 $
r0.6909258833538841 %
r1.245530202426337 &
r0.4386519822715167 '

#169000
r1.112510027649318 !
r0.6434694373431467 "
r0.8779896885967480 #
r1.151229324836272 $
r0.6019556450453413 %
r1.216042990394202 &
r0.4870427688871026 '

#170000
r1.058085382905245 !
r0.6336152988786582 "
r0.8458502985994372 #
r1.194033489898078 $
r0.5248225179965649 %
r1.180740055467445 &
r0.5482835679254791 '

#171000
r1.002311586710203 !
r0.6308781672274169 "
r0.8165948361390685 #
r1.232395998527716 $
r0.4598804697218529 %
r1.140651274064016 &
r0.6216853397873013 '

#172000
r0.9465031396205503 !
r0.6356206799666457 "
r0.7910618702405046 #
r1.265866447833110 $
r0.4068546816506675 %
r1.096925641773171 &
r0.7055744114441648 '

#173000
r0.8918041400800240 !
r0.6479690243289274 "
r0.7698865437101486 #
r1.293946895293445 $
r0.3651691823550123 %
r1.050744939798932 &
r0.7972856206023692 '

