Tests/AMS/PLL/v5.5/pll.vcd
$date
    Fri Jul 29 10:51:20 2011
$end

$version
                 SystemC AMS 1.0 --- 1.0Beta2 --- unknown release date
$end

$timescale
      1 ns
$end

$scope module SystemC_AMS $end

$var real 1 !  vco_out_1 $end
$var real 1 "  vco_out_2 $end
$var real 1 #  vco_out_3 $end
$var real 1 $  lpf_out1 $end
$var real 1 %  lpf_out2 $end
$var real 1 &  lpf_out3 $end

$upscope $end

$enddefinitions $end


#0
r0.000000000000000 !
r0.000000000000000 "
r0.000000000000000 #
r0.000000000000000 $
r0.000000000000000 %
r0.000000000000000 &

#10000
r0.000000000000000 !
r0.000000000000000 "
r0.000000000000000 #
r0.000000000000000 $
r0.000000000000000 %
r0.000000000000000 &

#20000
r0.06279051952931337 !
r0.06906002571440580 "
r0.06906002571440580 #
r0.0001361865658534327 $
r0.0001361865658534327 %
r0.0001497845185912818 &

#30000
r0.1253332335643043 !
r0.1377902906846381 "
r0.1377902906846381 #
r0.0008146609092913625 $
r0.0008146609092913625 %
r0.0008957555671958899 &

#40000
r0.1873821551145442 !
r0.2058634461272275 "
r0.2058635297356541 #
r0.002568016057825104 $
r0.002568015565794930 %
r0.002822455315566734 &

#50000
r0.2486956738160826 !
r0.2729576830033253 "
r0.2729582553810841 #
r0.005909851013428168 $
r0.005909845559091049 %
r0.006491605821622330 &

#60000
r0.3090380218467104 !
r0.3387587227244488 "
r0.3387607866828328 #
r0.01132599263164246 $
r0.01132596267805342 %
r0.01243157189810442 &

#70000
r0.3681796341926009 !
r0.4029606560200839 "
r0.4029660090925122 #
r0.01926630266387755 $
r0.01926619079905064 %
r0.02112756405664354 &

#80000
r0.4258972825235068 !
r0.4652665131056890 "
r0.4652778394619675 #
r0.03013716862097035 $
r0.03013684342987416 %
r0.03301271933947798 &

#90000
r0.4819740144387048 !
r0.5253886031448732 "
r0.5254094415191152 #
r0.04429475421696544 $
r0.04429396230306726 %
r0.04846016923052737 &

#100000
r0.5361989368708983 !
r0.5830486698989028 "
r0.5830832472945920 #
r0.06203906570009238 $
r0.06203737657537702 %
r0.06777617880300277 &

#110000
r0.5883668878267873 !
r0.6379779171663950 "
r0.6380308475091686 #
r0.08360887524057298 $
r0.08360562683508403 %
r0.09119442087827516 &

#120000
r0.6382780443821119 !
r0.6899169620699954 "
r0.6899928187149057 #
r0.1091775321471229 $
r0.1091717871130004 %
r0.1188714337582542 &

#130000
r0.6857375169680823 !
r0.7386157764535404 "
r0.7387185570396071 #
r0.1388496870129849 $
r0.1388402114654795 %
r0.1508833010236706 &

#140000
r0.7305549805455306 !
r0.7838336766695926 "
r0.7839661877878310 #
r0.1726589525251944 $
r0.1726442290988514 %
r0.1872235864273234 &

#150000
r0.7725443923299625 !
r0.8253394199448119 "
r0.8255026170056239 #
r0.2105665268189738 $
r0.2105448127440137 %
r0.2278025550704759 &

#160000
r0.8115238433624349 !
r0.8629114613971050 "
r0.8631037855314300 #
r0.2524608098240617 $
r0.2524302480868412 %
r0.2724477124783931 &

#170000
r0.8473155874555424 !
r0.8963384197269256 "
r0.8965551781405736 #
r0.2981580486865280 $
r0.2981168363010951 %
r0.3209056942554612 &

#180000
r0.8797462858960912 !
r0.9254197916915504 "
r0.9256526302512511 #
r0.3474040535378707 $
r0.3473506657329606 %
r0.3728455388932827 &

#190000
r0.9086474997543392 !
r0.9499669457715414 "
r0.9502034624119280 #
r0.3998770280056559 $
r0.3998104910689469 %
r0.4278633731550559 &

#200000
r0.9338564537277209 !
r0.9698044140439008 "
r0.9700279585817122 #
r0.4551915582906745 $
r0.4551117573806135 %
r0.4854885314551139 &

#210000
r0.9552170861437381 !
r0.9847714883148848 "
r0.9849611882578934 #
r0.5129037988397549 $
r0.5128118008486739 %
r0.5451911161777905 &

#220000
r0.9725813891114706 !
r0.9947241122297028 "
r0.9948551551070653 #
r0.5725178802900610 $
r0.5724162464634112 %
r0.6063909836594737 &

#230000
r0.9858110309613755 !
r0.9995370456519870 "
r0.9995812363580411 #
r0.6334935454468906 $
r0.6333866045968098 %
r0.6684681098082951 &

#240000
r0.9947792402624026 !
r0.9991062614978652 "
r0.9990328584146019 #
r0.6952549910381424 $
r0.6951490424623683 %
r0.7307742499141748 &

#250000
r0.9993729171880694 !
r0.9933515189613494 "
r0.9931283357155297 #
r0.7572008569066960 $
r0.7571042730566826 %
r0.7926457597376887 &

#260000
r0.9994949242898534 !
r0.9822190413695112 "
r0.9818137827482364 #
r0.8187152608970336 $
r0.8186384637725825 %
r0.8534173909611378 &

#270000
r0.9950664954385398 !
r0.9656842125849567 "
r0.9650659943898645 #
r0.8791797284804896 $
r0.8791350207519593 %
r0.9124368159571098 &

#280000
r0.9860296895512022 !
r0.9437541938648525 "
r0.9428951785676286 #
r0.9379858134604135 $
r0.9379870552145375 %
r0.9690795778804271 &

#290000
r0.9723498055680377 !
r0.9164703543816405 "
r0.9153474187574058 #
r0.9945481529711145 $
r0.9946102871808996 %
r1.022764106376970 &

#300000
r0.9540176678561914 !
r0.8839104041837199 "
r0.8825067431231695 #
r1.048317650113865 $
r1.048456093543576 %
r1.072966391308838 &

#310000
r0.9310516876435603 !
r0.8461901190864992 "
r0.8444966829496937 #
r1.098794435023785 $
r1.099024365096416 %
r1.119233871585681 &

#320000
r0.9034996069532480 !
r0.8034645534814132 "
r0.8014812158821395 #
r1.145540224061253 $
r1.145875804833155 %
r1.161198077990782 &

#330000
r0.8714398373363833 !
r0.7559286496586960 "
r0.7536650093259729 #
r1.188189680975351 $
r1.188643281307963 %
r1.198585571599894 &

#340000
r0.8349823167043872 !
r0.7038171708737436 "
r0.7012929055886099 #
r1.226460386358129 $
r1.227041849279469 %
r1.231226745609425 &

#350000
r0.7942688235862247 !
r0.6474039094882484 "
r0.6446486217828935 #
r1.260161044418104 $
r1.260877067443499 %
r1.259062109092137 &

#360000
r0.7494727086131091 !
r0.5870001500341719 "
r0.5840526724325693 #
r1.289197599501972 $
r1.290051280711856 %
r1.282145745437779 &

#370000
r0.7007980269804831 !
r0.5229523984687565 "
r0.5198595589440530 #
r1.313576997670457 $
r1.314567591596412 %
r1.300645733039097 &

#380000
r0.6484780817067587 !
r0.4556394213286766 "
r0.4524543051805263 #
r1.333408408080261 $
r1.334531319567658 %
r1.314841426262175 &

#390000
r0.5927734140802291 !
r0.3854686698380144 "
r0.3822484497759606 #
r1.348901810506768 $
r1.350148834994162 %
r1.325117614438028 &

#400000
r0.5339693030018238 !
r0.3128721921167126 "
r0.3096756312211157 #
r1.360363953461072 $
r1.361723750381100 %
r1.331955698060018 &

#410000
r0.4723728572548563 !
r0.2383021594650634 "
r0.2351869192200948 #
r1.368191785752927 $
r1.369650550215337 %
r1.335922136786712 &

#420000
r0.4083098025121650 !
r0.1622261486058158 "
r0.1592460540468167 #
r1.372863556719823 $
r1.374405835595024 %
r1.337654525899442 &

#430000
r0.3421210769090802 !
r0.08512232960231622 "
r0.08232475406167168 #
r1.374927860942532 $
r1.376537445070900 %
r1.337845740388205 &

#440000
r0.2741593544986023 !
r0.007474708417672696 "
r0.004898240405962893 #
r1.374990967485767 $
r1.376651783713133 %
r1.337226644440037 &

#450000
r0.2047856146054589 !
r-0.07023143611609151 "
r-0.07255889184960901 #
r1.373702818468915 $
r1.375399744628328 %
r1.336547896520133 &

#460000
r0.1343658672680278 !
r-0.1475137980012820 "
r-0.1495763535652285 #
r1.371742105789741 $
r1.373461638910434 %
r1.336561386467254 &

#470000
r0.06326813132864595 !
r-0.2238968727085028 "
r-0.2256913215557182 #
r1.369800838591724 $
r1.371531560995335 %
r1.338001823192373 &

#480000
r-0.008140256597728265 !
r-0.2989152967735086 "
r-0.3004510423027258 #
r1.368568799698883 $
r1.370301607955272 %
r1.341568953549632 &

#490000
r-0.07949494573509150 !
r-0.3721166568148414 "
r-0.3734148776406099 #
r1.368718260134210 $
r1.370446346190427 %
r1.347910839842724 &

#500000
r-0.1504364543917131 !
r-0.4430637575244252 "
r-0.4441558237393021 #
r1.370889281215915 $
r1.372607881062762 %
r1.357608560945823 &

#510000
r-0.2206116239654975 !
r-0.5113363680891126 "
r-0.5122615642301086 #
r1.375675888161542 $
r1.377381838665297 %
r1.371162635849432 &

#520000
r-0.2896746580896759 !
r-0.5765324936163915 "
r-0.5773351429401218 #
r1.383613352069466 $
r1.385304518635220 %
r1.388981403710560 &

#530000
r-0.3572877826454234 !
r-0.6382692411972815 "
r-0.6389953604632995 #
r1.395166772503819 $
r1.396841426892500 %
r1.411371535308968 &

#540000
r-0.4231215809652933 !
r-0.6961833683508452 "
r-0.6968770111580984 #
r1.410721113753898 $
r1.412377350942080 %
r1.438530800005934 &

#550000
r-0.4868550738103239 !
r-0.7499316142269705 "
r-0.7506310829320471 #
r1.430572816202133 $
r1.432208100527292 %
r1.470543171257435 &

#560000
r-0.5481756252628767 !
r-0.7991909208860096 "
r-0.7999250414369722 #
r1.454923081013534 $
r1.456534004519502 %
r1.507376322415180 &

#570000
r-0.6067787633591809 !
r-0.8436586532703513 "
r-0.8444433133338373 #
r1.483872911327296 $
r1.485455231433537 %
r1.548881541627659 &

#580000
r-0.6623680080434499 !
r-0.8830529223648338 "
r-0.8838880705002276 #
r1.517419985023969 $
r1.518968985283120 %
r1.594796077726974 &

#590000
r-0.7146547988910618 !
r-0.9171131068621526 "
r-0.9179803989370295 #
r1.555457430807901 $
r1.556968619117499 %
r1.644747914867286 &

#600000
r-0.7633586110897009 !
r-0.9456006548304470 "
r-0.9464619132428069 #
r1.597774577943738 $
r1.599244703230743 %
r1.698262958723722 &

#610000
r-0.8082073404628649 !
r-0.9683002288924356 "
r-0.9690968505061544 #
r1.644059747221782 $
r1.645488080874020 %
r1.754774597526464 &

#620000
r-0.8489380269535231 !
r-0.9850212367801314 "
r-0.9856746470799350 #
r1.693905143116560 $
r1.695294938173963 %
r1.813635573628858 &

#630000
r-0.8852979710630525 !
r-0.9955997643992984 "
r-0.9960129688832082 #
r1.746813891269568 $
r1.748173903651111 %
r1.874132062877431 &

#640000
r-0.9170462794278980 !
r-0.9999009013957885 "
r-0.9999611317936851 #
r1.802209238421107 $
r1.803555173243484 %
r1.935499807967311 &

#650000
r-0.9439558542932879 !
r-0.9978214204808017 "
r-0.9974038147861480 #
r1.859445891548308 $
r1.860801626587169 %
r1.996942087778169 &

#660000
r-0.9658158175650025 !
r-0.9892927424564466 "
r-0.9882649364682367 #
r1.917823418141306 $
r1.919221857819039 %
r2.057649228562855 &

#670000
r-0.9824343340782294 !
r-0.9742840902260902 "
r-0.9725115375487202 #
r1.976601560567381 $
r1.978084988783909 %
r2.116819277768189 &

#680000
r-0.9936417716919091 !
r-0.9528057085494913 "
r-0.9501574896988839 #
r2.035017236264738 $
r2.036637065048707 %
r2.173679371999082 &

#690000
r-0.9992941090760113 !
r-0.9249120035880743 "
r-0.9212668374105875 #
r2.092302905755040 $
r2.094118757892976 %
r2.227507243669044 &

#700000
r-0.9992764771704536 !
r-0.8907044391851053 "
r-0.8859565758071299 #
r2.147705897557143 $
r2.149784012413601 %
r2.277652234004876 &

#710000
r-0.9935066990363371 !
r-0.8503340171425889 "
r-0.8443986754878969 #
r2.200508189877664 $
r2.202919198530711 %
r2.323555121808755 &

#720000
r-0.9819386770658274 !
r-0.8040031681211914 "
r-0.7968211862576643 #
r2.250046071296914 $
r2.252862244734458 %
r2.364766046169978 &

#730000
r-0.9645654680633803 !
r-0.7519668894511345 "
r-0.7435082849526212 #
r2.295729044724148 $
r2.299021171351774 %
r2.400959804579401 &

#740000
r-0.9414218870726287 !
r-0.6945329867543447 "
r-0.6847991773767731 #
r2.337057308290125 $
r2.340891398506702 %
r2.431947851026120 &

#750000
r-0.9125864910131503 !
r-0.6320613077030348 "
r-0.6210858182935484 #
r2.373637149737895 $
r2.378071190633913 %
r2.457686404099917 &

#760000
r-0.8781828135204264 !
r-0.5649618974081594 "
r-0.5528094730835849 #
r2.405193631070673 $
r2.410274619615860 %
r2.478280201707836 &

#770000
r-0.8383797523118518 !
r-0.4936920537933095 "
r-0.4804562058311074 #
r2.431580018462812 $
r2.437341485168066 %
r2.493981601616953 &

#780000
r-0.7933910484815730 !
r-0.4187523149025028 "
r-0.4045514365025320 #
r2.452783526021427 $
r2.459243723776519 %
r2.505184916746083 &

#790000
r-0.7434738410427986 !
r-0.3406814647312653 "
r-0.3256537597834454 #
r2.468927084742170 $
r2.476087962731628 %
r2.512416078907393 &

#800000
r-0.6889263267729815 !
r-0.2600506957683983 "
r-0.2443482557977249 #
r2.480267010791234 $
r2.488114026780741 %
r2.516317930502490 &

#810000
r-0.6300846015280355 !
r-0.1774571108904577 "
r-0.1612395450856391 #
r2.487186618824162 $
r2.495689372068210 %
r2.517631635917025 &

#820000
r-0.5673188011405459 !
r-0.09351678088768808 "
r-0.07694484497273210 #
r2.490185994267176 $
r2.499299593941652 %
r2.517174869487669 &

#830000
r-0.5010286945495410 !
r-0.008857593881919593 "
r0.007912728494724663 #
r2.489868291609424 $
r2.499535319814688 %
r2.515817563926730 &

#840000
r-0.4316389062983115 !
r0.07588786245026796 "
r0.09271039825303087 #
r2.486923053762427 $
r2.497075944178313 %
r2.514456084684258 &

#850000
r-0.3595939582502032 !
r0.1600891559335107 "
r0.1768313318688824 #
r2.482107143164081 $
r2.492670780514299 %
r2.513986728997442 &

#860000
r-0.2853533206286707 !
r0.2431243979062635 "
r0.2596694964731140 #
r2.476223934675726 $
r2.487118287617402 %
r2.515279434904270 &

#870000
r-0.2093866506777877 !
r0.3243859977664479 "
r0.3406337028750823 #
r2.470101443183155 $
r2.481244072470957 %
r2.519152530879543 &

#880000
r-0.1321693747193667 !
r0.4032856645899968 "
r0.4191508382499631 #
r2.464570048246517 $
r2.475878378735178 %
r2.526349269651569 &

#890000
r-0.05417873826596652 !
r0.4792585885728180 "
r0.4946683429421528 #
r2.460440439916003 $
r2.471833742782684 %
r2.537516780657145 &

#900000
r0.02410958826825039 !
r0.5517667885203841 "
r0.5666560360690540 #
r2.458482351475127 $
r2.469883444343756 %
r2.553187955426087 &

#910000
r0.1022243010462328 !
r0.6203016625779150 "
r0.6346074339239771 #
r2.459404574664030 $
r2.470741304174262 %
r2.573766659068414 &

#920000
r0.1797006450920041 !
r0.6843858246151838 "
r0.6980407327799506 #
r2.463836678878845 $
r2.475043295347596 %
r2.599516547223938 &

#930000
r0.2560820198949914 !
r0.7435743456397699 "
r0.7564996426048967 #
r2.472312784824117 $
r2.483331346067523 %
r2.630553667023992 &

#940000
r0.3309210758128582 !
r0.7974555466163384 "
r0.8095542602176732 #
r2.485257680238382 $
r2.496039627386961 %
r2.666842935624674 &

#950000
r0.4037803982466244 !
r0.8456515052271231 "
r0.8568021599806387 #
r2.502975513602552 $
r2.513483544190767 %
r2.708198520667482 &

#960000
r0.4742328995223216 !
r0.8878184442407487 "
r0.8978698581477360 #
r2.525641261892479 $
r2.535851585405581 %
r2.754288091064816 &

#970000
r0.5418620541717154 !
r0.9236471636537362 "
r0.9324147747230814 #
r2.553295138997554 $
r2.563200140540526 %
r2.804640859316065 &

#980000
r0.6062621215051177 !
r0.9528636634395008 "
r0.9601277756563129 #
r2.585840089061660 $
r2.595451353121460 %
r2.858659292447395 &

#990000
r0.6670384998777052 !
r0.9752300796718497 "
r0.9807363301757169 #
r2.623042488932385 $
r2.632394054320772 %
r2.915634321551866 &

#1000000
r0.7238083498828767 !
r0.9905460252541701 "
r0.9940082650780597 #
r2.664536160458364 $
r2.673687797680136 %
r2.974763824143360 &

#1010000
r0.7762016089928537 !
r0.9986503888827329 "
r0.9997560422198241 #
r2.709829760627732 $
r2.718869992993958 %
r3.035174084734340 &

#1020000
r0.8238624981621023 !
r0.9994236037322189 "
r0.9978414300296046 #
r2.758317570010053 $
r2.767366108620654 %
r3.095943854787667 &

#1030000
r0.8664515920430097 !
r0.9927903523663187 "
r0.9881803877198573 #
r2.809293633333108 $
r2.818502871539927 %
r3.156130533635868 &

#1040000
r0.9036484894288446 !
r0.9787226284566579 "
r0.9707479354920399 #
r2.861969117851648 $
r2.871524339213269 %
r3.214797880244840 &

#1050000
r0.9351550803998316 !
r0.9572430312179834 "
r0.9455827490687241 #
r2.915492645507220 $
r2.925610644210005 %
r3.271044548080428 &

#1060000
r0.9606993629396339 !
r0.9284281275021561 "
r0.9127911959525935 #
r2.968973226769245 $
r2.979899121313553 %
r3.324032621004434 &

#1070000
r0.9800397165875802 !
r0.8924116819528718 "
r0.8725505270886500 #
r3.021505283711220 $
r3.033507419740428 %
r3.373015228630078 &

#1080000
r0.9929694966181449 !
r0.8493875303564380 "
r0.8251109534276361 #
r3.072195106600375 $
r3.085558085370855 %
r3.417362247839222 &

#1090000
r0.9993217723767375 !
r0.7996118581136431 "
r0.7707963732966012 #
r3.120187953875519 $
r3.135203977492919 %
r3.456583066177860 &

#1100000
r0.9989740011059406 !
r0.7434046470361020 "
r0.7100035728324723 #
r3.164694893209707 $
r3.181653771879970 %
r3.490345404002722 &

#1110000
r0.9918524072045799 !
r0.6811500711787347 "
r0.6431997954436572 #
r3.205018404922876 $
r3.224196709012176 %
r3.518489273672246 &

#1120000
r0.9779358293118302 !
r0.6132956568518009 "
r0.5709186627729035 #
r3.240575740370078 $
r3.262225685275926 %
r3.541035299044555 &

#1130000
r0.9572588060247663 !
r0.5403500726431349 "
r0.4937545226328964 #
r3.270919055947542 $
r3.295257767321828 %
r3.558186824364051 &

#1140000
r0.9299136963575371 !
r0.4628794799891198 "
r0.4123553913255029 #
r3.295751432207054 $
r3.322951244079113 %
r3.570325499121456 &

#1150000
r0.8960516726440965 !
r0.3815024497271035 "
r0.3274147405981945 #
r3.314938035701049 $
r3.345118421737395 %
r3.578000319387525 &

#1160000
r0.8558824792414654 !
r0.2968835298904547 "
r0.2396624456120989 #
r3.328511880990809 $
r3.361733513615047 %
r3.581910416324365 &

#1170000
r0.8096729163067689 !
r0.2097256285113938 "
r0.1498552534072735 #
r3.336673888574075 $
r3.372935172799445 %
r3.582882186142396 &

#1180000
r0.7577440790344676 !
r0.1207614457186569 "
r0.05876714729840176 #
r3.339787193923161 $
r3.379023448845062 %
r3.581841629542698 &

#1190000
r0.7004674532263979 !
r0.03074424563612442 "
r-0.03282003006377953 #
r3.338365923704848 $
r3.380451204291949 %
r3.579782992018153 &

#1200000
r0.6382600319826245 !
r-0.05956170472292411 "
r-0.1241253721989359 #
r3.333058897990210 $
r3.377810283269898 %
r3.577734953594458 &

#1210000
r0.5715786702606707 !
r-0.1493906886899271 "
r-0.2143768633116327 #
r3.324628924672713 $
r3.371812963440849 %
r3.576725698717349 &

#1220000
r0.5009139298386857 !
r-0.2379847550305541 "
r-0.3028183125448533 #
r3.313928511566599 $
r3.363269426284889 %
r3.577748202622454 &

#1230000
r0.4267836842349566 !
r-0.3246022984203286 "
r-0.3887151785871166 #
r3.301872925547225 $
r3.353062135420399 %
r3.581727005535766 &

#1240000
r0.3497267506170730 !
r-0.4085257625491789 "
r-0.4713592867799941 #
r3.289411575460371 $
r3.342118109806260 %
r3.589487622372057 &

#1250000
r0.2702967947186256 !
r-0.4890682916537077 "
r-0.5500725265063861 #
r3.277498690826931 $
r3.331380115913979 %
r3.601729569225997 &

#1260000
r0.1890567178585008 !
r-0.5655792334798935 "
r-0.6242096899138335 #
r3.267064220534359 $
r3.321777783800932 %
r3.619003796605806 &

#1270000
r0.1065736860484046 !
r-0.6374484759373759 "
r-0.6931606690251831 #
r3.258985796517882 $
r3.314199584961529 %
r3.641695120130002 &

#1280000
r0.02341490423306975 !
r-0.7041096747387716 "
r-0.7563522638406622 #
r3.254062509708064 $
r3.309466506857214 %
r3.670010046746559 &

#1290000
r-0.05985582156881225 !
r-0.7650424947397196 "
r-0.8132498676910553 #
r3.252991141370354 $
r3.308308133788931 %
r3.703970218842058 &

#1300000
r-0.1426807508438959 !
r-0.8197740394133879 "
r-0.8633592879408423 #
r3.256345392360342 $
r3.311341709819042 %
r3.743411545530756 &

#1310000
r-0.2245101753513845 !
r-0.8678796782791701 "
r-0.9062289314960466 #
r3.264558562593755 $
r3.319054628628417 %
r3.787988960841425 &

#1320000
r-0.3048038049184524 !
r-0.9089834999761705 "
r-0.9414525377463914 #
r3.277910056349720 $
r3.331790676508179 %
r3.837186639214238 &

#1330000
r-0.3830317288230283 !
r-0.9427586191163901 "
r-0.9686725796016851 #
r3.296516025355801 $
r3.349740253591465 %
r3.890333403400519 &

#1340000
r-0.4586751358944296 !
r-0.9689275491702444 "
r-0.9875843797858898 #
r3.320324407093330 $
r3.372934716640655 %
r3.946622970588247 &

#1350000
r-0.5312269909610767 !
r-0.9872628232571867 "
r-0.9979409086554277 #
r3.349114563972959 $
r3.401244922414889 %
r4.005138591272855 &

#1360000
r-0.6001928672210013 !
r-0.9975880021457071 "
r-0.9995581461282045 #
r3.382501671930018 $
r3.434383999106196 %
r4.064881535310215 &

#1370000
r-0.6650921233798976 !
r-0.9997791566180586 "
r-0.9923208089418121 #
r3.419945936127429 $
r3.471914327697415 %
r4.124802766640181 &

#1380000
r-0.7254595911931495 !
r-0.9937668524365972 "
r-0.9761881709122630 #
r3.460766619245853 $
r3.513258667407465 %
r4.183837021972124 &

#1390000
r-0.7808479039293933 !
r-0.9795386034522501 "
r-0.9511996438880334 #
r3.504160748860393 $
r3.557715301698912 %
r4.240938373256260 &

#1400000
r-0.8308305502851461 !
r-0.9571416951228348 "
r-0.9174797463587125 #
r3.549226222577676 $
r3.604477006820403 %
r4.295116217532995 &

#1410000
r-0.8750056830870658 !
r-0.9266862203108702 "
r-0.8752420702958430 #
r3.594988855174951 $
r3.652653548972375 %
r4.345470513390945 &

#1420000
r-0.9130006501576325 !
r-0.8883481154149131 "
r-0.8247918687200111 #
r3.640432718059068 $
r3.701297297561172 %
r4.391224986512352 &

#1430000
r-0.9444771493009417 !
r-0.8423719415499994 "
r-0.7665269288062885 #
r3.684532919954048 $
r3.749431403237478 %
r4.431756974862131 &

#1440000
r-0.9691368446663391 !
r-0.7890731265338234 "
r-0.7009364676944263 #
r3.726289785066828 $
r3.796079837424101 %
r4.466622593550745 &

#1450000
r-0.9867272226619596 !
r-0.7288393724626570 "
r-0.6285978872761175 #
r3.764763220143767 $
r3.840298435971496 %
r4.495575983752823 &

#1460000
r-0.9970474173956632 !
r-0.6621309435702797 "
r-0.5501713437435674 #
r3.799105944661237 $
r3.881205948106656 %
r4.518581577258611 &

#1470000
r-0.9999537034780348 !
r-0.5894795815532625 "
r-0.4663922184646277 #
r3.828594206972805 $
r3.918013979824765 %
r4.535818558678104 &

#1480000
r-0.9953643423465808 !
r-0.5114858506364515 "
r-0.3780617075937716 #
r3.852654637197352 $
r3.950054655466720 %
r4.547677032585235 &

#1490000
r-0.9832634800617709 !
r-0.4288147902989693 "
r-0.2860358665925768 #
r3.870886001768576 $
r3.976804817575338 %
r4.554745785578380 &

#1500000
r-0.9637038307692304 !
r-0.3421898454904845 "
r-0.1912135408502276 #
r3.883074823165950 $
r3.997905653974039 %
r4.557791948108100 &

#1510000
r-0.9368079392845450 !
r-0.2523851459011816 "
r-0.09452367515352321 #
r3.889204100652345 $
r4.013176786605489 %
r4.557733277335009 &

#1520000
r-0.9027678945826292 !
r-0.1602163092611744 "
r0.003087483584969428 #
r3.889454694827081 $
r4.022624075334504 %
r4.555604167587841 &

#1530000
r-0.8618434571448272 !
r-0.06653003964762073 "
r0.1006687964406545 #
r3.884199295237932 $
r4.026440669709546 %
r4.552516818486552 &

#1540000
r-0.8143586592693703 !
r0.02780712865149059 "
r0.1972758219688631 #
r3.873989247829009 $
r4.025001163211289 %
r4.549619227512457 &

#1550000
r-0.7606970299675690 !
r0.1219205358705382 "
r0.2919812455258524 #
r3.859534849737440 $
r4.018849043025965 %
r4.548051807572441 &

#1560000
r-0.7012956766143212 !
r0.2149391188511841 "
r0.3838839264777822 #
r3.841679998933438 $
r4.008677956661266 %
r4.548904455302412 &

#1570000
r-0.6366385170476383 !
r0.3060067263644681 "
r0.4721164708226330 #
r3.821372298203809 $
r3.995307608538583 %
r4.553175817637340 &

#1580000
r-0.5672489933592755 !
r0.3942926424797167 "
r0.5558513656499515 #
r3.799629848189393 $
r3.979655333065642 %
r4.561736337111197 &

#1590000
r-0.4936826098015333 !
r0.4790009995043266 "
r0.6343058285821188 #
r3.777506022516273 $
r3.962704550500487 %
r4.575296421821596 &

#1600000
r-0.4165196223421242 !
r0.5593788498071776 "
r0.7067456202006140 #
r3.756053507196422 $
r3.945471391430358 %
r4.594380808831777 &

#1610000
r-0.3363581691290746 !
r0.6347227661753476 "
r0.7724881334526460 #
r3.736288819901485 $
r3.928970776800306 %
r4.619309894745961 &

#1620000
r-0.2538080740477163 !
r0.7043839439883282 "
r0.8309051071229622 #
r3.719158419142490 $
r3.914183172654958 %
r4.650188515859992 &

#1630000
r-0.1694854853950753 !
r0.7677718765316539 "
r0.8814253095111184 #
r3.705507386036399 $
r3.902023117278723 %
r4.686902388787581 &

#1640000
r-0.08400843463867917 !
r0.8243567595848188 "
r0.9235375049123036 #
r3.696051527492901 $
r3.893310461531952 %
r4.729122180300545 &

#1650000
r0.002006677748454075 !
r0.8736708472676238 "
r0.9567939528967195 #
r3.691353620800199 $
r3.888745089643512 %
r4.776314965135090 &

#1660000
r0.08794773594721016 !
r0.9153090244555432 "
r0.9808146038768409 #
r3.691804402297158 $
r3.888885714374183 %
r4.827762649818028 &

#1670000
r0.1732088332573594 !
r0.9489288804761041 "
r0.9952920504164866 #
r3.697608798409572 $
r3.894133180410475 %
r4.882586782238048 &

#1680000
r0.2571916511917213 !
r0.9742505647669865 "
r0.9999971794530599 #
r3.708777802263934 $
r3.904718571338180 %
r4.939779021906766 &

#1690000
r0.3393065148478620 !
r0.9910566796964743 "
r0.9947853540449977 #
r3.725126305994988 $
r3.920696301618544 %
r4.998236406151598 &

#1700000
r0.4189733677017898 !
r0.9991924218530150 "
r0.9796028428795921 #
r3.746277097999153 $
r3.941942283772110 %
r5.056800406825311 &

#1710000
r0.4956229131794487 !
r0.9985661244961903 "
r0.9544931202735176 #
r3.771671115462057 $
r3.968157186516485 %
r5.114298628592442 &

#1720000
r0.5686981569345224 !
r0.9891502845869329 "
r0.9196025873031444 #
r3.800583896598212 $
r3.998874733116343 %
r5.169587856745351 &

#1730000
r0.6376565529467285 !
r0.9709830821381381 "
r0.8751852238158344 #
r3.832147998568581 $
r4.033474920549073 %
r5.221597028624815 &

#1740000
r0.7019729093085811 !
r0.9441703219387143 "
r0.8216056777096458 #
r3.865380935322073 $
r4.071201959394706 %
r5.269368591906043 &

#1750000
r0.7611431477191508 !
r0.9088876525289465 "
r0.7593403359713814 #
r3.899217950108395 $
r4.111186633633756 %
r5.312096642756761 &

#1760000
r0.8146889371468897 !
r0.8653828493077693 "
r0.6889760022293967 #
r3.932548682209866 $
r4.152472654164701 %
r5.349160226197420 &

#1770000
r0.8621631409706083 !
r0.8139778925904201 "
r0.6112059247564374 #
r3.964256534792586 $
r4.194046429811752 %
r5.380150247700473 &

#1780000
r0.9031559335036734 !
r0.7550705319994117 "
r0.5268230694116302 #
r3.993259323659658 $
r4.234869510235797 %
r5.404888602729234 &

#1790000
r0.9373013625554835 !
r0.6891350100880032 "
r0.4367107023150406 #
r4.018549610357295 $
r4.273912777385076 %
r5.423438385983768 &

#1800000
r0.9642840666297484 !
r0.6167216240785861 "
r0.3418305222211707 #
r4.039233021857927 $
r4.310191291783045 %
r5.436104391621446 &

#1810000
r0.9838458055247647 !
r0.5384548372066497 "
r0.2432087459080867 #
r4.054562852724902 $
r4.342798556441289 %
r5.443423546044374 &

#1820000
r0.9957914376490399 !
r0.4550297106247833 "
r0.1419206848436467 #
r4.063969346155631 $
r4.370938865223043 %
r5.446145401950266 &

#1830000
r0.9999939806903042 !
r0.3672065109638985 "
r0.03907444357722433 #
r4.067082259056467 $
r4.393956373310803 %
r5.445203333531833 &

#1840000
r0.9963984261898001 !
r0.2758034526268544 "
r-0.06420559040808504 #
r4.063745623146270 $
r4.411359579786096 %
r5.441677569886903 &

#1850000
r0.9850240417596992 !
r0.1816876502675982 "
r-0.1667948137102287 #
r4.054023997761031 $
r4.422840053666005 %
r5.436751647687379 &

#1860000
r0.9659649825531434 !
r0.08576447614285398 "
r-0.2675834526764396 #
r4.038199940514080 $
r4.428284463238515 %
r5.431664219425700 &

#1870000
r0.9393891386430623 !
r-0.01103437164973935 "
r-0.3654901302250745 #
r4.016762864209637 $
r4.427779272346483 %
r5.427658392639687 &

#1880000
r0.9055352575652195 !
r-0.1077636913870412 "
r-0.4594736510517752 #
r3.990389866910057 $
r4.421607825262413 %
r5.425930882296072 &

#1890000
r0.8647084908627873 !
r-0.2034780271920408 "
r-0.5485428746383779 #
r3.959919485439870 $
r4.410239925832630 %
r5.427583229893652 &

#1900000
r0.8172746098379391 !
r-0.2972448529383638 "
r-0.6317647173757511 #
r3.926319607410455 $
r4.394314394950952 %
r5.433577188503392 &

#1910000
r0.7636532102997681 !
r-0.3881572062555569 "
r-0.7082704798847538 #
r3.890650969907163 $
r4.374615431979477 %
r5.444696113286994 &

#1920000
r0.7043102729219480 !
r-0.4753453340452347 "
r-0.7772608191605684 #
r3.854027772092126 $
r4.352043883844933 %
r5.461513859702528 &

#1930000
r0.6397504620506640 !
r-0.5579869890865372 "
r-0.8380097673050622 #
r3.817576941847401 $
r4.327584721378247 %
r5.484372307413968 &

#1940000
r0.5705095317956256 !
r-0.6353161198031012 "
r-0.8898682337127621 #
r3.782397538422657 $
r4.302272126966534 %
r5.513368226641830 &

#1950000
r0.4971471671805097 !
r-0.7066298118253004 "
r-0.9322674145373236 #
r3.749521663339701 $
r4.277153611854757 %
r5.548349810596418 &

