Tests/Cam/v3/cam.vcd
$date
     Jun 25, 2011       17:30:55
$end

$version
              SystemC 2.2.0 --- May 22 2011 14:06:03
$end

$timescale
     1 ps
$end

$scope module SystemC $end
$var wire    1  aaa  clock       $end
$var wire    4  aab  cmd [3:0]  $end
$var wire   32  aac  comp [31:0]  $end
$var wire   32  aad  mask [31:0]  $end
$var wire   32  aae  writedata [31:0]  $end
$var wire   32  aaf  readdata [31:0]  $end
$var wire    4  aag  address [3:0]  $end
$var wire    1  aah  start       $end
$var wire    1  aai  done       $end
$var wire    1  aaj  match       $end
$upscope $end
$enddefinitions  $end

$comment
All initial values are dumped below at time 0 sec = 0 timescale units.
$end

$dumpvars
1aaa
b0 aab
b0 aac
b0 aad
bXXXXXXXXXXXXXXXXXXXXXXXXXXXXXXXX aae
bXXXXXXXXXXXXXXXXXXXXXXXXXXXXXXXX aaf
b0 aag
0aah
1aai
0aaj
$end

#10000
0aaa

#20000
1aaa
b101 aab
b10011 aae
b11 aag
1aah

#30000
0aaa

#40000
1aaa
0aah
0aai

#50000
0aaa

#60000
1aaa
1aai

#70000
0aaa

#80000
1aaa
b100111 aae
b100 aag
1aah

#90000
0aaa

#100000
1aaa
0aah
0aai

#110000
0aaa

#120000
1aaa
1aai

#130000
0aaa

#140000
1aaa
b100 aab
b0 aae
b11 aag
1aah

#150000
0aaa

#160000
1aaa
0aah
0aai

#170000
0aaa

#180000
1aaa
b10011 aaf
1aai

#190000
0aaa

#200000
1aaa
b100 aag
1aah

#210000
0aaa

#220000
1aaa
0aah
0aai

#230000
0aaa

#240000
1aaa
b100111 aaf
1aai

#250000
0aaa

#260000
1aaa
b101 aag
1aah

#270000
0aaa

#280000
1aaa
0aah
0aai

#290000
0aaa

#300000
1aaa
bXXXXXXXXXXXXXXXXXXXXXXXXXXXXXXXX aaf
1aai

#310000
0aaa

#320000
1aaa
b1 aab
b10011 aac
b0 aag
1aah

#330000
0aaa

#340000
1aaa
0aah
0aai

#350000
0aaa

#360000
1aaa
1aai
1aaj

#370000
0aaa

#380000
1aaa
b10111 aac
1aah

#390000
0aaa

#400000
1aaa
0aah
0aai
0aaj

#410000
0aaa

#420000
1aaa
1aai

#430000
0aaa

#440000
1aaa
b100000 aac
b1111 aad
1aah

#450000
0aaa

#460000
1aaa
0aah
0aai

#470000
0aaa

#480000
1aaa
1aai
1aaj

#490000
0aaa

#500000
1aaa
b10 aab
b0 aac
b0 aad
1aah

#510000
0aaa

#520000
1aaa
0aah
0aai
0aaj

#530000
0aaa

#540000
1aaa
b100111 aaf
1aai

