Tests/Cam/v1/cam.vcd
$date
     Jun 20, 2011       07:23:01
$end

$version
              SystemC 2.2.0 --- May 22 2011 14:06:03
$end

$timescale
     1 ps
$end

$scope module SystemC $end
$var wire    1  aaa  clock       $end
$var wire   64  aab  comp [63:0]  $end
$var wire   64  aac  mask [63:0]  $end
$var wire    1  aad  start       $end
$var wire    1  aae  done       $end
$var wire    1  aaf  match       $end
$upscope $end
$enddefinitions  $end

$comment
All initial values are dumped below at time 0 sec = 0 timescale units.
$end

$dumpvars
1aaa
b0 aab
b0 aac
1aad
1aae
0aaf
$end

#10000
0aaa

#20000
1aaa
0aad
0aae

#30000
0aaa

#40000
1aaa
b1 aab
1aae
1aaf

#50000
0aaa

#60000
1aaa
1aad
0aaf

#70000
0aaa

#80000
1aaa
0aad
0aae

#90000
0aaa

#100000
1aaa
b10 aab
1aae
1aaf

#110000
0aaa

#120000
1aaa
1aad
0aaf

#130000
0aaa

#140000
1aaa
0aad
0aae

#150000
0aaa

#160000
1aaa
b11 aab
1aae
1aaf

#170000
0aaa

#180000
1aaa
1aad
0aaf

#190000
0aaa

#200000
1aaa
0aad
0aae

#210000
0aaa

#220000
1aaa
b100 aab
1aae
1aaf

#230000
0aaa

#240000
1aaa
1aad
0aaf

#250000
0aaa

#260000
1aaa
0aad
0aae

#270000
0aaa

#280000
1aaa
b101 aab
1aae
1aaf

#290000
0aaa

#300000
1aaa
1aad
0aaf

#310000
0aaa

#320000
1aaa
0aad
0aae

#330000
0aaa

#340000
1aaa
b110 aab
1aae
1aaf

#350000
0aaa

#360000
1aaa
1aad
0aaf

#370000
0aaa

#380000
1aaa
0aad
0aae

#390000
0aaa

#400000
1aaa
b111 aab
1aae
1aaf

#410000
0aaa

#420000
1aaa
1aad
0aaf

#430000
0aaa

#440000
1aaa
0aad
0aae

#450000
0aaa

#460000
1aaa
b1000 aab
1aae
1aaf

#470000
0aaa

#480000
1aaa
1aad
0aaf

#490000
0aaa

#500000
1aaa
0aad
0aae

#510000
0aaa

#520000
1aaa
b1001 aab
1aae
1aaf

#530000
0aaa

#540000
1aaa
1aad
0aaf

#550000
0aaa

#560000
1aaa
0aad
0aae

#570000
0aaa

#580000
1aaa
b1010 aab
1aae
1aaf

#590000
0aaa

#600000
1aaa
1aad
0aaf

#610000
0aaa

#620000
1aaa
0aad
0aae

#630000
0aaa

#640000
1aaa
b1011 aab
1aae

#650000
0aaa

#660000
1aaa
1aad

#670000
0aaa

#680000
1aaa
0aad
0aae

#690000
0aaa

#700000
1aaa
b1100 aab
1aae

#710000
0aaa

#720000
1aaa
1aad

#730000
0aaa

#740000
1aaa
0aad
0aae

#750000
0aaa

#760000
1aaa
b1101 aab
1aae

#770000
0aaa

#780000
1aaa
1aad

#790000
0aaa

#800000
1aaa
0aad
0aae

#810000
0aaa

#820000
1aaa
b1110 aab
1aae

#830000
0aaa

#840000
1aaa
1aad

#850000
0aaa

#860000
1aaa
0aad
0aae

#870000
0aaa

#880000
1aaa
b1111 aab
1aae

#890000
0aaa

#900000
1aaa
1aad

#910000
0aaa

#920000
1aaa
0aad
0aae

#930000
0aaa

#940000
1aaa
b10000 aab
1aae

#950000
0aaa

#960000
1aaa
1aad

#970000
0aaa

#980000
1aaa
0aad
0aae

